<mxfile host="app.diagrams.net" modified="2020-07-16T08:11:45.799Z" agent="5.0 (Windows NT 10.0; Win64; x64) AppleWebKit/537.36 (KHTML, like Gecko) Chrome/83.0.4103.116 Safari/537.36" etag="XdoJhWcdlFqEELvOOsuv" version="13.4.4" type="gitlab" pages="5">
  <diagram id="pwofFD4iP5XPsULrA4O_" name="ManageProduct_Activity">
    <mxGraphModel dx="1422" dy="745" grid="1" gridSize="10" guides="1" tooltips="1" connect="1" arrows="1" fold="1" page="1" pageScale="1" pageWidth="1100" pageHeight="850" math="0" shadow="0">
      <root>
        <mxCell id="0" />
        <mxCell id="1" parent="0" />
        <mxCell id="UssvvWeIvCbqJga0U1SI-1" value="Manage products" style="swimlane;html=1;childLayout=stackLayout;startSize=20;rounded=0;shadow=0;comic=0;labelBackgroundColor=none;strokeWidth=1;fontFamily=Verdana;fontSize=12;align=center;" parent="1" vertex="1">
          <mxGeometry x="160" y="30" width="750" height="820" as="geometry">
            <mxRectangle x="40" y="20" width="60" height="20" as="alternateBounds" />
          </mxGeometry>
        </mxCell>
        <mxCell id="UssvvWeIvCbqJga0U1SI-2" value="Staff/Manager" style="swimlane;html=1;startSize=20;" parent="UssvvWeIvCbqJga0U1SI-1" vertex="1">
          <mxGeometry y="20" width="250" height="800" as="geometry" />
        </mxCell>
        <mxCell id="UssvvWeIvCbqJga0U1SI-29" style="edgeStyle=orthogonalEdgeStyle;rounded=0;orthogonalLoop=1;jettySize=auto;html=1;exitX=0.5;exitY=1;exitDx=0;exitDy=0;entryX=0.5;entryY=0;entryDx=0;entryDy=0;" parent="UssvvWeIvCbqJga0U1SI-2" source="UssvvWeIvCbqJga0U1SI-16" target="UssvvWeIvCbqJga0U1SI-27" edge="1">
          <mxGeometry relative="1" as="geometry">
            <Array as="points">
              <mxPoint x="75" y="310" />
              <mxPoint x="75" y="310" />
            </Array>
          </mxGeometry>
        </mxCell>
        <mxCell id="UssvvWeIvCbqJga0U1SI-30" value="[Other operation]" style="edgeLabel;html=1;align=center;verticalAlign=middle;resizable=0;points=[];rotation=-90;" parent="UssvvWeIvCbqJga0U1SI-29" vertex="1" connectable="0">
          <mxGeometry x="-0.1429" y="-4" relative="1" as="geometry">
            <mxPoint x="-16" y="1.38" as="offset" />
          </mxGeometry>
        </mxCell>
        <mxCell id="UssvvWeIvCbqJga0U1SI-16" value="" style="rhombus;whiteSpace=wrap;html=1;" parent="UssvvWeIvCbqJga0U1SI-2" vertex="1">
          <mxGeometry x="50" y="230" width="50" height="50" as="geometry" />
        </mxCell>
        <mxCell id="UssvvWeIvCbqJga0U1SI-17" style="edgeStyle=orthogonalEdgeStyle;rounded=0;orthogonalLoop=1;jettySize=auto;html=1;exitX=0;exitY=0.5;exitDx=0;exitDy=0;entryX=0.5;entryY=0;entryDx=0;entryDy=0;" parent="UssvvWeIvCbqJga0U1SI-2" source="UssvvWeIvCbqJga0U1SI-6" target="UssvvWeIvCbqJga0U1SI-16" edge="1">
          <mxGeometry relative="1" as="geometry" />
        </mxCell>
        <mxCell id="UssvvWeIvCbqJga0U1SI-7" style="edgeStyle=orthogonalEdgeStyle;rounded=0;html=1;labelBackgroundColor=none;startArrow=none;startFill=0;startSize=5;endArrow=classicThin;endFill=1;endSize=5;jettySize=auto;orthogonalLoop=1;strokeWidth=1;fontFamily=Verdana;fontSize=12" parent="UssvvWeIvCbqJga0U1SI-2" source="UssvvWeIvCbqJga0U1SI-4" target="UssvvWeIvCbqJga0U1SI-6" edge="1">
          <mxGeometry relative="1" as="geometry" />
        </mxCell>
        <mxCell id="UssvvWeIvCbqJga0U1SI-18" style="edgeStyle=orthogonalEdgeStyle;rounded=0;orthogonalLoop=1;jettySize=auto;html=1;exitX=1;exitY=0.5;exitDx=0;exitDy=0;entryX=0.5;entryY=0;entryDx=0;entryDy=0;" parent="UssvvWeIvCbqJga0U1SI-2" source="UssvvWeIvCbqJga0U1SI-16" target="UssvvWeIvCbqJga0U1SI-9" edge="1">
          <mxGeometry relative="1" as="geometry" />
        </mxCell>
        <mxCell id="UssvvWeIvCbqJga0U1SI-19" value="[Add product]" style="edgeLabel;html=1;align=center;verticalAlign=middle;resizable=0;points=[];" parent="UssvvWeIvCbqJga0U1SI-18" vertex="1" connectable="0">
          <mxGeometry x="-0.3231" relative="1" as="geometry">
            <mxPoint y="-15" as="offset" />
          </mxGeometry>
        </mxCell>
        <mxCell id="UssvvWeIvCbqJga0U1SI-32" style="edgeStyle=orthogonalEdgeStyle;rounded=0;orthogonalLoop=1;jettySize=auto;html=1;exitX=0.5;exitY=1;exitDx=0;exitDy=0;entryX=0.5;entryY=0;entryDx=0;entryDy=0;" parent="UssvvWeIvCbqJga0U1SI-2" source="UssvvWeIvCbqJga0U1SI-27" target="UssvvWeIvCbqJga0U1SI-28" edge="1">
          <mxGeometry relative="1" as="geometry" />
        </mxCell>
        <mxCell id="UssvvWeIvCbqJga0U1SI-22" style="edgeStyle=orthogonalEdgeStyle;rounded=0;orthogonalLoop=1;jettySize=auto;html=1;exitX=1;exitY=0.5;exitDx=0;exitDy=0;entryX=0.5;entryY=0;entryDx=0;entryDy=0;" parent="UssvvWeIvCbqJga0U1SI-2" source="UssvvWeIvCbqJga0U1SI-28" target="UssvvWeIvCbqJga0U1SI-20" edge="1">
          <mxGeometry relative="1" as="geometry" />
        </mxCell>
        <mxCell id="UssvvWeIvCbqJga0U1SI-23" value="[Update product]" style="edgeLabel;html=1;align=center;verticalAlign=middle;resizable=0;points=[];rotation=0;" parent="UssvvWeIvCbqJga0U1SI-22" vertex="1" connectable="0">
          <mxGeometry x="-0.56" y="-1" relative="1" as="geometry">
            <mxPoint x="18.33" y="-16" as="offset" />
          </mxGeometry>
        </mxCell>
        <mxCell id="UssvvWeIvCbqJga0U1SI-25" style="edgeStyle=orthogonalEdgeStyle;rounded=0;orthogonalLoop=1;jettySize=auto;html=1;exitX=0.5;exitY=1;exitDx=0;exitDy=0;entryX=0;entryY=0.5;entryDx=0;entryDy=0;" parent="UssvvWeIvCbqJga0U1SI-2" source="UssvvWeIvCbqJga0U1SI-28" target="UssvvWeIvCbqJga0U1SI-33" edge="1">
          <mxGeometry relative="1" as="geometry">
            <mxPoint x="95" y="565" as="targetPoint" />
          </mxGeometry>
        </mxCell>
        <mxCell id="UssvvWeIvCbqJga0U1SI-26" value="[Delete product]" style="edgeLabel;html=1;align=center;verticalAlign=middle;resizable=0;points=[];rotation=-90;" parent="UssvvWeIvCbqJga0U1SI-25" vertex="1" connectable="0">
          <mxGeometry x="-0.3424" y="-1" relative="1" as="geometry">
            <mxPoint x="-10" y="12" as="offset" />
          </mxGeometry>
        </mxCell>
        <mxCell id="UssvvWeIvCbqJga0U1SI-28" value="" style="rhombus;whiteSpace=wrap;html=1;" parent="UssvvWeIvCbqJga0U1SI-2" vertex="1">
          <mxGeometry x="50" y="430" width="50" height="50" as="geometry" />
        </mxCell>
        <mxCell id="UssvvWeIvCbqJga0U1SI-27" value="Choose product" style="rounded=1;whiteSpace=wrap;html=1;shadow=0;comic=0;labelBackgroundColor=none;strokeWidth=1;fontFamily=Verdana;fontSize=12;align=center;arcSize=50;" parent="UssvvWeIvCbqJga0U1SI-2" vertex="1">
          <mxGeometry x="31.25" y="370" width="87.5" height="30" as="geometry" />
        </mxCell>
        <mxCell id="UssvvWeIvCbqJga0U1SI-33" value="" style="rhombus;whiteSpace=wrap;html=1;" parent="UssvvWeIvCbqJga0U1SI-2" vertex="1">
          <mxGeometry x="95" y="550" width="50" height="50" as="geometry" />
        </mxCell>
        <mxCell id="UssvvWeIvCbqJga0U1SI-4" value="" style="ellipse;whiteSpace=wrap;html=1;rounded=0;shadow=0;comic=0;labelBackgroundColor=none;strokeWidth=1;fillColor=#000000;fontFamily=Verdana;fontSize=12;align=center;" parent="UssvvWeIvCbqJga0U1SI-2" vertex="1">
          <mxGeometry x="130" y="40" width="40" height="40" as="geometry" />
        </mxCell>
        <mxCell id="UssvvWeIvCbqJga0U1SI-6" value="Login" style="rounded=1;whiteSpace=wrap;html=1;shadow=0;comic=0;labelBackgroundColor=none;strokeWidth=1;fontFamily=Verdana;fontSize=12;align=center;arcSize=50;" parent="UssvvWeIvCbqJga0U1SI-2" vertex="1">
          <mxGeometry x="100" y="130" width="100" height="30" as="geometry" />
        </mxCell>
        <mxCell id="UssvvWeIvCbqJga0U1SI-9" value="Input new&amp;nbsp;product infomation" style="rounded=1;whiteSpace=wrap;html=1;shadow=0;comic=0;labelBackgroundColor=none;strokeWidth=1;fontFamily=Verdana;fontSize=12;align=center;arcSize=50;" parent="UssvvWeIvCbqJga0U1SI-2" vertex="1">
          <mxGeometry x="105" y="280" width="125" height="30" as="geometry" />
        </mxCell>
        <mxCell id="UssvvWeIvCbqJga0U1SI-20" value="Update product infomation" style="rounded=1;whiteSpace=wrap;html=1;shadow=0;comic=0;labelBackgroundColor=none;strokeWidth=1;fontFamily=Verdana;fontSize=12;align=center;arcSize=50;" parent="UssvvWeIvCbqJga0U1SI-2" vertex="1">
          <mxGeometry x="95" y="490" width="135" height="30" as="geometry" />
        </mxCell>
        <mxCell id="UssvvWeIvCbqJga0U1SI-8" value="Website" style="swimlane;html=1;startSize=20;" parent="UssvvWeIvCbqJga0U1SI-1" vertex="1">
          <mxGeometry x="250" y="20" width="250" height="800" as="geometry" />
        </mxCell>
        <mxCell id="UssvvWeIvCbqJga0U1SI-46" style="edgeStyle=orthogonalEdgeStyle;rounded=0;orthogonalLoop=1;jettySize=auto;html=1;exitX=1;exitY=0.5;exitDx=0;exitDy=0;entryX=0.5;entryY=1;entryDx=0;entryDy=0;" parent="UssvvWeIvCbqJga0U1SI-8" source="D7jl7rTkjSGfLNMVEEwh-1" target="UssvvWeIvCbqJga0U1SI-13" edge="1">
          <mxGeometry relative="1" as="geometry">
            <Array as="points">
              <mxPoint x="230" y="295" />
              <mxPoint x="230" y="710" />
              <mxPoint x="51" y="710" />
            </Array>
          </mxGeometry>
        </mxCell>
        <mxCell id="UssvvWeIvCbqJga0U1SI-13" value="" style="shape=mxgraph.bpmn.shape;html=1;verticalLabelPosition=bottom;labelBackgroundColor=#ffffff;verticalAlign=top;perimeter=ellipsePerimeter;outline=end;symbol=terminate;rounded=0;shadow=0;comic=0;strokeWidth=1;fontFamily=Verdana;fontSize=12;align=center;" parent="UssvvWeIvCbqJga0U1SI-8" vertex="1">
          <mxGeometry x="31.25" y="640" width="40" height="40" as="geometry" />
        </mxCell>
        <mxCell id="UssvvWeIvCbqJga0U1SI-34" value="Delete product" style="rounded=1;whiteSpace=wrap;html=1;shadow=0;comic=0;labelBackgroundColor=none;strokeWidth=1;fontFamily=Verdana;fontSize=12;align=center;arcSize=50;" parent="UssvvWeIvCbqJga0U1SI-8" vertex="1">
          <mxGeometry x="16.25" y="560" width="70" height="30" as="geometry" />
        </mxCell>
        <mxCell id="UssvvWeIvCbqJga0U1SI-40" value="Update product" style="rounded=1;whiteSpace=wrap;html=1;shadow=0;comic=0;labelBackgroundColor=none;strokeWidth=1;fontFamily=Verdana;fontSize=12;align=center;arcSize=50;" parent="UssvvWeIvCbqJga0U1SI-8" vertex="1">
          <mxGeometry x="12.5" y="490" width="77.5" height="30" as="geometry" />
        </mxCell>
        <mxCell id="D7jl7rTkjSGfLNMVEEwh-2" style="edgeStyle=orthogonalEdgeStyle;rounded=0;orthogonalLoop=1;jettySize=auto;html=1;exitX=1;exitY=0.5;exitDx=0;exitDy=0;entryX=0;entryY=0.5;entryDx=0;entryDy=0;" parent="UssvvWeIvCbqJga0U1SI-8" source="UssvvWeIvCbqJga0U1SI-12" target="D7jl7rTkjSGfLNMVEEwh-1" edge="1">
          <mxGeometry relative="1" as="geometry" />
        </mxCell>
        <mxCell id="UssvvWeIvCbqJga0U1SI-12" value="Add product" style="rounded=1;whiteSpace=wrap;html=1;shadow=0;comic=0;labelBackgroundColor=none;strokeWidth=1;fontFamily=Verdana;fontSize=12;align=center;arcSize=50;" parent="UssvvWeIvCbqJga0U1SI-8" vertex="1">
          <mxGeometry x="22.5" y="280" width="87.5" height="30" as="geometry" />
        </mxCell>
        <mxCell id="UssvvWeIvCbqJga0U1SI-47" style="edgeStyle=orthogonalEdgeStyle;rounded=0;orthogonalLoop=1;jettySize=auto;html=1;exitX=1;exitY=0.5;exitDx=0;exitDy=0;entryX=1;entryY=0.5;entryDx=0;entryDy=0;" parent="UssvvWeIvCbqJga0U1SI-8" source="D7jl7rTkjSGfLNMVEEwh-3" target="UssvvWeIvCbqJga0U1SI-13" edge="1">
          <mxGeometry relative="1" as="geometry">
            <Array as="points">
              <mxPoint x="210" y="505" />
              <mxPoint x="210" y="660" />
            </Array>
          </mxGeometry>
        </mxCell>
        <mxCell id="D7jl7rTkjSGfLNMVEEwh-6" style="edgeStyle=orthogonalEdgeStyle;rounded=0;orthogonalLoop=1;jettySize=auto;html=1;exitX=1;exitY=0.5;exitDx=0;exitDy=0;entryX=0;entryY=0.5;entryDx=0;entryDy=0;" parent="UssvvWeIvCbqJga0U1SI-8" source="UssvvWeIvCbqJga0U1SI-34" target="D7jl7rTkjSGfLNMVEEwh-5" edge="1">
          <mxGeometry relative="1" as="geometry" />
        </mxCell>
        <mxCell id="UssvvWeIvCbqJga0U1SI-45" style="edgeStyle=orthogonalEdgeStyle;rounded=0;orthogonalLoop=1;jettySize=auto;html=1;exitX=0.5;exitY=1;exitDx=0;exitDy=0;" parent="UssvvWeIvCbqJga0U1SI-8" source="D7jl7rTkjSGfLNMVEEwh-5" target="UssvvWeIvCbqJga0U1SI-13" edge="1">
          <mxGeometry relative="1" as="geometry" />
        </mxCell>
        <mxCell id="D7jl7rTkjSGfLNMVEEwh-4" style="edgeStyle=orthogonalEdgeStyle;rounded=0;orthogonalLoop=1;jettySize=auto;html=1;exitX=1;exitY=0.5;exitDx=0;exitDy=0;entryX=0;entryY=0.5;entryDx=0;entryDy=0;" parent="UssvvWeIvCbqJga0U1SI-8" source="UssvvWeIvCbqJga0U1SI-40" target="D7jl7rTkjSGfLNMVEEwh-3" edge="1">
          <mxGeometry relative="1" as="geometry" />
        </mxCell>
        <mxCell id="T_w18JtpAIXterhOXZnD-5" style="edgeStyle=orthogonalEdgeStyle;rounded=0;orthogonalLoop=1;jettySize=auto;html=1;exitX=0.5;exitY=0;exitDx=0;exitDy=0;entryX=0.145;entryY=0.855;entryDx=0;entryDy=0;entryPerimeter=0;" edge="1" parent="UssvvWeIvCbqJga0U1SI-8" source="T_w18JtpAIXterhOXZnD-1" target="UssvvWeIvCbqJga0U1SI-13">
          <mxGeometry relative="1" as="geometry">
            <Array as="points">
              <mxPoint x="126" y="730" />
              <mxPoint x="37" y="730" />
            </Array>
          </mxGeometry>
        </mxCell>
        <mxCell id="T_w18JtpAIXterhOXZnD-1" value="Display product list" style="rounded=1;whiteSpace=wrap;html=1;shadow=0;comic=0;labelBackgroundColor=none;strokeWidth=1;fontFamily=Verdana;fontSize=12;align=center;arcSize=50;" vertex="1" parent="UssvvWeIvCbqJga0U1SI-8">
          <mxGeometry x="81.5" y="740" width="88.5" height="30" as="geometry" />
        </mxCell>
        <mxCell id="D7jl7rTkjSGfLNMVEEwh-3" value="Display product" style="rounded=1;whiteSpace=wrap;html=1;shadow=0;comic=0;labelBackgroundColor=none;strokeWidth=1;fontFamily=Verdana;fontSize=12;align=center;arcSize=50;" parent="UssvvWeIvCbqJga0U1SI-8" vertex="1">
          <mxGeometry x="110" y="490" width="87" height="30" as="geometry" />
        </mxCell>
        <mxCell id="D7jl7rTkjSGfLNMVEEwh-5" value="Display operation aborted" style="rounded=1;whiteSpace=wrap;html=1;shadow=0;comic=0;labelBackgroundColor=none;strokeWidth=1;fontFamily=Verdana;fontSize=12;align=center;arcSize=50;" parent="UssvvWeIvCbqJga0U1SI-8" vertex="1">
          <mxGeometry x="110" y="550" width="87" height="50" as="geometry" />
        </mxCell>
        <mxCell id="D7jl7rTkjSGfLNMVEEwh-1" value="Display product" style="rounded=1;whiteSpace=wrap;html=1;shadow=0;comic=0;labelBackgroundColor=none;strokeWidth=1;fontFamily=Verdana;fontSize=12;align=center;arcSize=50;" parent="UssvvWeIvCbqJga0U1SI-8" vertex="1">
          <mxGeometry x="130" y="280" width="87" height="30" as="geometry" />
        </mxCell>
        <mxCell id="UssvvWeIvCbqJga0U1SI-10" value="SQL Database" style="swimlane;html=1;startSize=20;" parent="UssvvWeIvCbqJga0U1SI-1" vertex="1">
          <mxGeometry x="500" y="20" width="250" height="800" as="geometry">
            <mxRectangle x="500" y="20" width="30" height="970" as="alternateBounds" />
          </mxGeometry>
        </mxCell>
        <mxCell id="UssvvWeIvCbqJga0U1SI-39" value="Product details" style="rounded=0;whiteSpace=wrap;html=1;shadow=0;comic=0;labelBackgroundColor=none;strokeWidth=1;fontFamily=Verdana;fontSize=12;align=center;arcSize=50;" parent="UssvvWeIvCbqJga0U1SI-10" vertex="1">
          <mxGeometry x="90" y="280" width="100" height="30" as="geometry" />
        </mxCell>
        <mxCell id="UssvvWeIvCbqJga0U1SI-15" style="edgeStyle=orthogonalEdgeStyle;rounded=0;orthogonalLoop=1;jettySize=auto;html=1;exitX=1;exitY=0.5;exitDx=0;exitDy=0;entryX=0;entryY=0.5;entryDx=0;entryDy=0;" parent="UssvvWeIvCbqJga0U1SI-1" source="UssvvWeIvCbqJga0U1SI-9" target="UssvvWeIvCbqJga0U1SI-12" edge="1">
          <mxGeometry relative="1" as="geometry" />
        </mxCell>
        <mxCell id="UssvvWeIvCbqJga0U1SI-35" style="edgeStyle=orthogonalEdgeStyle;rounded=0;orthogonalLoop=1;jettySize=auto;html=1;exitX=0.5;exitY=1;exitDx=0;exitDy=0;entryX=0;entryY=0.5;entryDx=0;entryDy=0;" parent="UssvvWeIvCbqJga0U1SI-1" source="UssvvWeIvCbqJga0U1SI-33" target="UssvvWeIvCbqJga0U1SI-13" edge="1">
          <mxGeometry relative="1" as="geometry" />
        </mxCell>
        <mxCell id="UssvvWeIvCbqJga0U1SI-36" value="[Confirm NO]" style="edgeLabel;html=1;align=center;verticalAlign=middle;resizable=0;points=[];" parent="UssvvWeIvCbqJga0U1SI-35" vertex="1" connectable="0">
          <mxGeometry x="-0.6355" y="2" relative="1" as="geometry">
            <mxPoint x="40.5" y="-8" as="offset" />
          </mxGeometry>
        </mxCell>
        <mxCell id="UssvvWeIvCbqJga0U1SI-37" style="edgeStyle=orthogonalEdgeStyle;rounded=0;orthogonalLoop=1;jettySize=auto;html=1;exitX=1;exitY=0.5;exitDx=0;exitDy=0;" parent="UssvvWeIvCbqJga0U1SI-1" source="UssvvWeIvCbqJga0U1SI-33" target="UssvvWeIvCbqJga0U1SI-34" edge="1">
          <mxGeometry relative="1" as="geometry" />
        </mxCell>
        <mxCell id="UssvvWeIvCbqJga0U1SI-38" value="[Confirm YES]" style="edgeLabel;html=1;align=center;verticalAlign=middle;resizable=0;points=[];" parent="UssvvWeIvCbqJga0U1SI-37" vertex="1" connectable="0">
          <mxGeometry x="-0.679" y="1" relative="1" as="geometry">
            <mxPoint x="23.33" y="-14" as="offset" />
          </mxGeometry>
        </mxCell>
        <mxCell id="UssvvWeIvCbqJga0U1SI-41" style="edgeStyle=orthogonalEdgeStyle;rounded=0;orthogonalLoop=1;jettySize=auto;html=1;exitX=1;exitY=0.5;exitDx=0;exitDy=0;entryX=0;entryY=0.5;entryDx=0;entryDy=0;" parent="UssvvWeIvCbqJga0U1SI-1" source="UssvvWeIvCbqJga0U1SI-20" target="UssvvWeIvCbqJga0U1SI-40" edge="1">
          <mxGeometry relative="1" as="geometry" />
        </mxCell>
        <mxCell id="UssvvWeIvCbqJga0U1SI-42" style="edgeStyle=orthogonalEdgeStyle;rounded=0;orthogonalLoop=1;jettySize=auto;html=1;entryX=0.5;entryY=0;entryDx=0;entryDy=0;dashed=1;exitX=0.5;exitY=0;exitDx=0;exitDy=0;" parent="UssvvWeIvCbqJga0U1SI-1" source="UssvvWeIvCbqJga0U1SI-39" target="UssvvWeIvCbqJga0U1SI-12" edge="1">
          <mxGeometry relative="1" as="geometry" />
        </mxCell>
        <mxCell id="UssvvWeIvCbqJga0U1SI-43" style="edgeStyle=orthogonalEdgeStyle;rounded=0;orthogonalLoop=1;jettySize=auto;html=1;entryX=0.5;entryY=0;entryDx=0;entryDy=0;dashed=1;" parent="UssvvWeIvCbqJga0U1SI-1" target="UssvvWeIvCbqJga0U1SI-40" edge="1">
          <mxGeometry relative="1" as="geometry">
            <mxPoint x="620" y="330" as="sourcePoint" />
            <Array as="points">
              <mxPoint x="620" y="480" />
              <mxPoint x="301" y="480" />
            </Array>
          </mxGeometry>
        </mxCell>
        <mxCell id="UssvvWeIvCbqJga0U1SI-44" style="edgeStyle=orthogonalEdgeStyle;rounded=0;orthogonalLoop=1;jettySize=auto;html=1;exitX=0.5;exitY=1;exitDx=0;exitDy=0;entryX=0.5;entryY=0;entryDx=0;entryDy=0;dashed=1;" parent="UssvvWeIvCbqJga0U1SI-1" source="UssvvWeIvCbqJga0U1SI-39" target="UssvvWeIvCbqJga0U1SI-34" edge="1">
          <mxGeometry relative="1" as="geometry">
            <Array as="points">
              <mxPoint x="640" y="560" />
              <mxPoint x="301" y="560" />
            </Array>
          </mxGeometry>
        </mxCell>
        <mxCell id="T_w18JtpAIXterhOXZnD-2" style="edgeStyle=orthogonalEdgeStyle;rounded=0;orthogonalLoop=1;jettySize=auto;html=1;exitX=0;exitY=0.5;exitDx=0;exitDy=0;entryX=0;entryY=0.5;entryDx=0;entryDy=0;" edge="1" parent="UssvvWeIvCbqJga0U1SI-1" source="UssvvWeIvCbqJga0U1SI-16" target="T_w18JtpAIXterhOXZnD-1">
          <mxGeometry relative="1" as="geometry">
            <Array as="points">
              <mxPoint x="20" y="275" />
              <mxPoint x="20" y="775" />
            </Array>
          </mxGeometry>
        </mxCell>
        <mxCell id="T_w18JtpAIXterhOXZnD-3" value="[List all products]" style="edgeLabel;html=1;align=center;verticalAlign=middle;resizable=0;points=[];rotation=-89;" vertex="1" connectable="0" parent="T_w18JtpAIXterhOXZnD-2">
          <mxGeometry x="-0.6364" y="3" relative="1" as="geometry">
            <mxPoint x="-15" as="offset" />
          </mxGeometry>
        </mxCell>
        <mxCell id="T_w18JtpAIXterhOXZnD-4" style="edgeStyle=orthogonalEdgeStyle;rounded=0;orthogonalLoop=1;jettySize=auto;html=1;exitX=0.75;exitY=1;exitDx=0;exitDy=0;entryX=1;entryY=0.5;entryDx=0;entryDy=0;dashed=1;" edge="1" parent="UssvvWeIvCbqJga0U1SI-1" source="UssvvWeIvCbqJga0U1SI-39" target="T_w18JtpAIXterhOXZnD-1">
          <mxGeometry relative="1" as="geometry" />
        </mxCell>
      </root>
    </mxGraphModel>
  </diagram>
  <diagram id="Y8NyxExsT35L8NqUJu44" name="ManageProduct_Sequence">
    <mxGraphModel dx="1422" dy="745" grid="1" gridSize="10" guides="1" tooltips="1" connect="1" arrows="1" fold="1" page="1" pageScale="1" pageWidth="1100" pageHeight="850" math="0" shadow="0">
      <root>
        <mxCell id="x0RAMHzwVSR4xcI_g-d5-0" />
        <mxCell id="x0RAMHzwVSR4xcI_g-d5-1" parent="x0RAMHzwVSR4xcI_g-d5-0" />
        <mxCell id="YTT4XT67M_4h5pJnMDU--0" value="&lt;span style=&quot;text-align: left&quot;&gt;display_product()&lt;/span&gt;" style="html=1;verticalAlign=bottom;endArrow=block;exitX=1;exitY=0;exitDx=0;exitDy=0;dashed=1;" parent="x0RAMHzwVSR4xcI_g-d5-1" edge="1">
          <mxGeometry relative="1" as="geometry">
            <mxPoint x="452.25" y="580" as="sourcePoint" />
            <mxPoint x="247.75" y="580" as="targetPoint" />
          </mxGeometry>
        </mxCell>
        <mxCell id="YTT4XT67M_4h5pJnMDU--1" value="update_product()" style="html=1;verticalAlign=bottom;endArrow=block;exitX=1;exitY=0;exitDx=0;exitDy=0;" parent="x0RAMHzwVSR4xcI_g-d5-1" target="YTT4XT67M_4h5pJnMDU--14" edge="1">
          <mxGeometry relative="1" as="geometry">
            <mxPoint x="235" y="474" as="sourcePoint" />
            <mxPoint x="439.5" y="474" as="targetPoint" />
          </mxGeometry>
        </mxCell>
        <mxCell id="YTT4XT67M_4h5pJnMDU--2" value="add_product()" style="html=1;verticalAlign=bottom;endArrow=block;exitX=1;exitY=0;exitDx=0;exitDy=0;" parent="x0RAMHzwVSR4xcI_g-d5-1" target="YTT4XT67M_4h5pJnMDU--6" edge="1">
          <mxGeometry relative="1" as="geometry">
            <mxPoint x="235" y="204" as="sourcePoint" />
            <mxPoint x="439.5" y="204" as="targetPoint" />
          </mxGeometry>
        </mxCell>
        <mxCell id="YTT4XT67M_4h5pJnMDU--3" value="" style="shape=umlLifeline;participant=umlActor;perimeter=lifelinePerimeter;whiteSpace=wrap;html=1;container=1;collapsible=0;recursiveResize=0;verticalAlign=top;spacingTop=36;outlineConnect=0;fillColor=none;" parent="x0RAMHzwVSR4xcI_g-d5-1" vertex="1">
          <mxGeometry x="230" y="80" width="20" height="1160" as="geometry" />
        </mxCell>
        <mxCell id="YTT4XT67M_4h5pJnMDU--4" value="" style="html=1;points=[];perimeter=orthogonalPerimeter;" parent="YTT4XT67M_4h5pJnMDU--3" vertex="1">
          <mxGeometry x="5" y="120" width="10" height="130" as="geometry" />
        </mxCell>
        <mxCell id="YTT4XT67M_4h5pJnMDU--5" value="Website" style="shape=umlLifeline;perimeter=lifelinePerimeter;whiteSpace=wrap;html=1;container=1;collapsible=0;recursiveResize=0;outlineConnect=0;fillColor=none;" parent="x0RAMHzwVSR4xcI_g-d5-1" vertex="1">
          <mxGeometry x="400" y="80" width="100" height="1160" as="geometry" />
        </mxCell>
        <mxCell id="YTT4XT67M_4h5pJnMDU--6" value="" style="html=1;points=[];perimeter=orthogonalPerimeter;" parent="YTT4XT67M_4h5pJnMDU--5" vertex="1">
          <mxGeometry x="45" y="120" width="10" height="120" as="geometry" />
        </mxCell>
        <mxCell id="YTT4XT67M_4h5pJnMDU--7" value="" style="html=1;points=[];perimeter=orthogonalPerimeter;" parent="YTT4XT67M_4h5pJnMDU--5" vertex="1">
          <mxGeometry x="-165" y="280" width="10" height="230" as="geometry" />
        </mxCell>
        <mxCell id="YTT4XT67M_4h5pJnMDU--8" value="SQL" style="shape=umlLifeline;perimeter=lifelinePerimeter;whiteSpace=wrap;html=1;container=1;collapsible=0;recursiveResize=0;outlineConnect=0;fillColor=none;" parent="x0RAMHzwVSR4xcI_g-d5-1" vertex="1">
          <mxGeometry x="630" y="80" width="100" height="1160" as="geometry" />
        </mxCell>
        <mxCell id="YTT4XT67M_4h5pJnMDU--9" value="" style="html=1;points=[];perimeter=orthogonalPerimeter;" parent="YTT4XT67M_4h5pJnMDU--8" vertex="1">
          <mxGeometry x="45" y="160" width="10" height="40" as="geometry" />
        </mxCell>
        <mxCell id="YTT4XT67M_4h5pJnMDU--10" value="store_product()" style="html=1;verticalAlign=bottom;endArrow=block;" parent="x0RAMHzwVSR4xcI_g-d5-1" edge="1">
          <mxGeometry relative="1" as="geometry">
            <mxPoint x="455" y="240" as="sourcePoint" />
            <mxPoint x="678" y="240" as="targetPoint" />
          </mxGeometry>
        </mxCell>
        <mxCell id="YTT4XT67M_4h5pJnMDU--11" value="" style="html=1;verticalAlign=bottom;endArrow=block;exitX=1;exitY=0;exitDx=0;exitDy=0;dashed=1;" parent="x0RAMHzwVSR4xcI_g-d5-1" edge="1">
          <mxGeometry relative="1" as="geometry">
            <mxPoint x="674.5" y="280" as="sourcePoint" />
            <mxPoint x="455" y="280" as="targetPoint" />
          </mxGeometry>
        </mxCell>
        <mxCell id="YTT4XT67M_4h5pJnMDU--12" value="&lt;span style=&quot;text-align: left&quot;&gt;display_product()&lt;/span&gt;" style="html=1;verticalAlign=bottom;endArrow=block;exitX=1;exitY=0;exitDx=0;exitDy=0;dashed=1;" parent="x0RAMHzwVSR4xcI_g-d5-1" edge="1">
          <mxGeometry relative="1" as="geometry">
            <mxPoint x="452.25" y="310" as="sourcePoint" />
            <mxPoint x="247.75" y="310" as="targetPoint" />
          </mxGeometry>
        </mxCell>
        <mxCell id="YTT4XT67M_4h5pJnMDU--13" value="Staff/Manager" style="text;html=1;strokeColor=none;fillColor=none;align=center;verticalAlign=middle;whiteSpace=wrap;rounded=0;" parent="x0RAMHzwVSR4xcI_g-d5-1" vertex="1">
          <mxGeometry x="220" y="50" width="40" height="20" as="geometry" />
        </mxCell>
        <mxCell id="YTT4XT67M_4h5pJnMDU--14" value="" style="html=1;points=[];perimeter=orthogonalPerimeter;" parent="x0RAMHzwVSR4xcI_g-d5-1" vertex="1">
          <mxGeometry x="445" y="370" width="10" height="220" as="geometry" />
        </mxCell>
        <mxCell id="YTT4XT67M_4h5pJnMDU--15" value="" style="html=1;points=[];perimeter=orthogonalPerimeter;" parent="x0RAMHzwVSR4xcI_g-d5-1" vertex="1">
          <mxGeometry x="675" y="510" width="10" height="40" as="geometry" />
        </mxCell>
        <mxCell id="YTT4XT67M_4h5pJnMDU--16" value="update_product()" style="html=1;verticalAlign=bottom;endArrow=block;" parent="x0RAMHzwVSR4xcI_g-d5-1" edge="1">
          <mxGeometry relative="1" as="geometry">
            <mxPoint x="455" y="510" as="sourcePoint" />
            <mxPoint x="678" y="510" as="targetPoint" />
          </mxGeometry>
        </mxCell>
        <mxCell id="YTT4XT67M_4h5pJnMDU--17" value="" style="html=1;verticalAlign=bottom;endArrow=block;exitX=1;exitY=0;exitDx=0;exitDy=0;dashed=1;" parent="x0RAMHzwVSR4xcI_g-d5-1" edge="1">
          <mxGeometry relative="1" as="geometry">
            <mxPoint x="674.5" y="550" as="sourcePoint" />
            <mxPoint x="455" y="550" as="targetPoint" />
          </mxGeometry>
        </mxCell>
        <mxCell id="YTT4XT67M_4h5pJnMDU--18" value="check_permission()" style="edgeStyle=orthogonalEdgeStyle;html=1;align=left;spacingLeft=2;endArrow=block;rounded=0;entryX=1;entryY=0;" parent="x0RAMHzwVSR4xcI_g-d5-1" edge="1">
          <mxGeometry relative="1" as="geometry">
            <mxPoint x="450" y="640" as="sourcePoint" />
            <Array as="points">
              <mxPoint x="475" y="640" />
            </Array>
            <mxPoint x="455" y="660" as="targetPoint" />
          </mxGeometry>
        </mxCell>
        <mxCell id="YTT4XT67M_4h5pJnMDU--19" value="opt" style="shape=umlFrame;whiteSpace=wrap;html=1;width=50;height=20;" parent="x0RAMHzwVSR4xcI_g-d5-1" vertex="1">
          <mxGeometry x="98.11" y="810" width="630" height="260" as="geometry" />
        </mxCell>
        <mxCell id="YTT4XT67M_4h5pJnMDU--20" value="prompt_comfirmative()" style="html=1;verticalAlign=bottom;endArrow=block;exitX=1;exitY=0;exitDx=0;exitDy=0;" parent="x0RAMHzwVSR4xcI_g-d5-1" edge="1">
          <mxGeometry relative="1" as="geometry">
            <mxPoint x="453.1100000000001" y="760" as="sourcePoint" />
            <mxPoint x="243.11000000000013" y="760" as="targetPoint" />
          </mxGeometry>
        </mxCell>
        <mxCell id="YTT4XT67M_4h5pJnMDU--21" value="&lt;span style=&quot;text-align: left&quot;&gt;display_product_deleted()&lt;/span&gt;" style="html=1;verticalAlign=bottom;endArrow=block;exitX=1;exitY=0;exitDx=0;exitDy=0;dashed=1;entryX=1;entryY=0.667;entryDx=0;entryDy=0;entryPerimeter=0;" parent="x0RAMHzwVSR4xcI_g-d5-1" edge="1">
          <mxGeometry relative="1" as="geometry">
            <mxPoint x="452.6100000000001" y="920" as="sourcePoint" />
            <mxPoint x="243.11000000000013" y="920.1300000000001" as="targetPoint" />
          </mxGeometry>
        </mxCell>
        <mxCell id="YTT4XT67M_4h5pJnMDU--22" value="&lt;span style=&quot;text-align: left&quot;&gt;display(&quot;Operation aborted&quot;)&lt;/span&gt;" style="html=1;verticalAlign=bottom;endArrow=block;exitX=1;exitY=0;exitDx=0;exitDy=0;dashed=1;entryX=1.08;entryY=0.924;entryDx=0;entryDy=0;entryPerimeter=0;" parent="x0RAMHzwVSR4xcI_g-d5-1" edge="1">
          <mxGeometry relative="1" as="geometry">
            <mxPoint x="452.6100000000001" y="1020" as="sourcePoint" />
            <mxPoint x="243.9100000000003" y="1020.3599999999999" as="targetPoint" />
          </mxGeometry>
        </mxCell>
        <mxCell id="YTT4XT67M_4h5pJnMDU--23" value="delete_product()" style="html=1;verticalAlign=bottom;endArrow=block;exitX=1;exitY=0;exitDx=0;exitDy=0;" parent="x0RAMHzwVSR4xcI_g-d5-1" edge="1">
          <mxGeometry relative="1" as="geometry">
            <mxPoint x="235" y="714" as="sourcePoint" />
            <mxPoint x="445" y="714" as="targetPoint" />
          </mxGeometry>
        </mxCell>
        <mxCell id="YTT4XT67M_4h5pJnMDU--24" value="" style="html=1;points=[];perimeter=orthogonalPerimeter;" parent="x0RAMHzwVSR4xcI_g-d5-1" vertex="1">
          <mxGeometry x="235" y="630" width="10" height="420" as="geometry" />
        </mxCell>
        <mxCell id="YTT4XT67M_4h5pJnMDU--25" value="" style="html=1;points=[];perimeter=orthogonalPerimeter;" parent="x0RAMHzwVSR4xcI_g-d5-1" vertex="1">
          <mxGeometry x="445" y="630" width="10" height="400" as="geometry" />
        </mxCell>
        <mxCell id="YTT4XT67M_4h5pJnMDU--26" value="" style="html=1;points=[];perimeter=orthogonalPerimeter;" parent="x0RAMHzwVSR4xcI_g-d5-1" vertex="1">
          <mxGeometry x="675.36" y="850" width="10" height="40" as="geometry" />
        </mxCell>
        <mxCell id="YTT4XT67M_4h5pJnMDU--27" value="delete_product()" style="html=1;verticalAlign=bottom;endArrow=block;" parent="x0RAMHzwVSR4xcI_g-d5-1" edge="1">
          <mxGeometry relative="1" as="geometry">
            <mxPoint x="455.3600000000001" y="850" as="sourcePoint" />
            <mxPoint x="678.3600000000001" y="850" as="targetPoint" />
          </mxGeometry>
        </mxCell>
        <mxCell id="YTT4XT67M_4h5pJnMDU--28" value="" style="html=1;verticalAlign=bottom;endArrow=block;exitX=1;exitY=0;exitDx=0;exitDy=0;dashed=1;" parent="x0RAMHzwVSR4xcI_g-d5-1" edge="1">
          <mxGeometry relative="1" as="geometry">
            <mxPoint x="674.8600000000001" y="890" as="sourcePoint" />
            <mxPoint x="455.3600000000001" y="890" as="targetPoint" />
          </mxGeometry>
        </mxCell>
        <mxCell id="YTT4XT67M_4h5pJnMDU--29" value="select_product()" style="edgeStyle=orthogonalEdgeStyle;html=1;align=left;spacingLeft=2;endArrow=block;rounded=0;" parent="x0RAMHzwVSR4xcI_g-d5-1" edge="1">
          <mxGeometry x="-0.4272" y="10" relative="1" as="geometry">
            <mxPoint x="240" y="630" as="sourcePoint" />
            <Array as="points">
              <mxPoint x="410" y="630" />
              <mxPoint x="410" y="630" />
            </Array>
            <mxPoint x="449.5" y="630" as="targetPoint" />
            <mxPoint as="offset" />
          </mxGeometry>
        </mxCell>
        <mxCell id="YTT4XT67M_4h5pJnMDU--30" value="confirmation = YES" style="text;html=1;align=center;verticalAlign=middle;resizable=0;points=[];autosize=1;" parent="x0RAMHzwVSR4xcI_g-d5-1" vertex="1">
          <mxGeometry x="98.11" y="830" width="120" height="20" as="geometry" />
        </mxCell>
        <mxCell id="YTT4XT67M_4h5pJnMDU--31" value="&lt;span style=&quot;text-align: left&quot;&gt;return confirmation&lt;/span&gt;" style="html=1;verticalAlign=bottom;endArrow=block;exitX=1;exitY=0;exitDx=0;exitDy=0;dashed=1;entryX=0.04;entryY=0.28;entryDx=0;entryDy=0;entryPerimeter=0;" parent="x0RAMHzwVSR4xcI_g-d5-1" edge="1">
          <mxGeometry relative="1" as="geometry">
            <mxPoint x="243.11000000000013" y="800" as="sourcePoint" />
            <mxPoint x="443.5100000000002" y="799.6000000000001" as="targetPoint" />
          </mxGeometry>
        </mxCell>
        <mxCell id="YTT4XT67M_4h5pJnMDU--32" value="" style="endArrow=none;html=1;entryX=1.003;entryY=0.542;entryDx=0;entryDy=0;entryPerimeter=0;" parent="x0RAMHzwVSR4xcI_g-d5-1" target="YTT4XT67M_4h5pJnMDU--19" edge="1">
          <mxGeometry width="50" height="50" relative="1" as="geometry">
            <mxPoint x="98.1099999999999" y="950" as="sourcePoint" />
            <mxPoint x="568.11" y="770" as="targetPoint" />
          </mxGeometry>
        </mxCell>
        <mxCell id="YTT4XT67M_4h5pJnMDU--33" value="confirmation = NO" style="text;html=1;align=center;verticalAlign=middle;resizable=0;points=[];autosize=1;" parent="x0RAMHzwVSR4xcI_g-d5-1" vertex="1">
          <mxGeometry x="98.11" y="950" width="110" height="20" as="geometry" />
        </mxCell>
        <mxCell id="YTT4XT67M_4h5pJnMDU--34" value="&lt;span style=&quot;text-align: left&quot;&gt;display_available_option()&lt;/span&gt;" style="html=1;verticalAlign=bottom;endArrow=block;dashed=1;" parent="x0RAMHzwVSR4xcI_g-d5-1" target="YTT4XT67M_4h5pJnMDU--24" edge="1">
          <mxGeometry relative="1" as="geometry">
            <mxPoint x="450" y="680" as="sourcePoint" />
            <mxPoint x="250.00000000000034" y="680.3599999999999" as="targetPoint" />
          </mxGeometry>
        </mxCell>
        <mxCell id="YTT4XT67M_4h5pJnMDU--35" value="check_permission()" style="edgeStyle=orthogonalEdgeStyle;html=1;align=left;spacingLeft=2;endArrow=block;rounded=0;entryX=1;entryY=0;" parent="x0RAMHzwVSR4xcI_g-d5-1" edge="1">
          <mxGeometry relative="1" as="geometry">
            <mxPoint x="455" y="380" as="sourcePoint" />
            <Array as="points">
              <mxPoint x="480" y="380" />
            </Array>
            <mxPoint x="460" y="400" as="targetPoint" />
          </mxGeometry>
        </mxCell>
        <mxCell id="YTT4XT67M_4h5pJnMDU--36" value="select_product()" style="edgeStyle=orthogonalEdgeStyle;html=1;align=left;spacingLeft=2;endArrow=block;rounded=0;entryX=0.086;entryY=-0.003;entryDx=0;entryDy=0;entryPerimeter=0;" parent="x0RAMHzwVSR4xcI_g-d5-1" target="YTT4XT67M_4h5pJnMDU--14" edge="1">
          <mxGeometry x="-0.4272" y="10" relative="1" as="geometry">
            <mxPoint x="245" y="370" as="sourcePoint" />
            <Array as="points">
              <mxPoint x="415" y="370" />
            </Array>
            <mxPoint x="440" y="370" as="targetPoint" />
            <mxPoint as="offset" />
          </mxGeometry>
        </mxCell>
        <mxCell id="YTT4XT67M_4h5pJnMDU--37" value="&lt;span style=&quot;text-align: left&quot;&gt;display_available_option()&lt;/span&gt;" style="html=1;verticalAlign=bottom;endArrow=block;dashed=1;" parent="x0RAMHzwVSR4xcI_g-d5-1" edge="1">
          <mxGeometry relative="1" as="geometry">
            <mxPoint x="455" y="420" as="sourcePoint" />
            <mxPoint x="250" y="420" as="targetPoint" />
          </mxGeometry>
        </mxCell>
        <mxCell id="YTT4XT67M_4h5pJnMDU--38" value="Check permission:&lt;br&gt;- Staff/Manager: Has permission to update/delete any product&lt;br&gt;- Client: Has only permission to view" style="shape=note;whiteSpace=wrap;html=1;size=14;verticalAlign=top;align=left;spacingTop=-6;" parent="x0RAMHzwVSR4xcI_g-d5-1" vertex="1">
          <mxGeometry x="730" y="350" width="220" height="70" as="geometry" />
        </mxCell>
        <mxCell id="YTT4XT67M_4h5pJnMDU--39" value="" style="endArrow=none;html=1;entryX=0;entryY=0.5;entryDx=0;entryDy=0;entryPerimeter=0;dashed=1;" parent="x0RAMHzwVSR4xcI_g-d5-1" target="YTT4XT67M_4h5pJnMDU--38" edge="1">
          <mxGeometry width="50" height="50" relative="1" as="geometry">
            <mxPoint x="580" y="390" as="sourcePoint" />
            <mxPoint x="580" y="380" as="targetPoint" />
          </mxGeometry>
        </mxCell>
        <mxCell id="YTT4XT67M_4h5pJnMDU--40" value="" style="endArrow=none;html=1;entryX=0.5;entryY=1;entryDx=0;entryDy=0;entryPerimeter=0;dashed=1;" parent="x0RAMHzwVSR4xcI_g-d5-1" target="YTT4XT67M_4h5pJnMDU--38" edge="1">
          <mxGeometry width="50" height="50" relative="1" as="geometry">
            <mxPoint x="580" y="650" as="sourcePoint" />
            <mxPoint x="840.0000000000005" y="420" as="targetPoint" />
            <Array as="points">
              <mxPoint x="840" y="650" />
            </Array>
          </mxGeometry>
        </mxCell>
        <mxCell id="pDB0O-3MZXtTZ92TBe9p-0" value="&lt;span style=&quot;text-align: left&quot;&gt;display_product&lt;/span&gt;&lt;span style=&quot;text-align: left&quot;&gt;_list()&lt;/span&gt;" style="html=1;verticalAlign=bottom;endArrow=block;exitX=1;exitY=0;exitDx=0;exitDy=0;dashed=1;entryX=1;entryY=0.667;entryDx=0;entryDy=0;entryPerimeter=0;" edge="1" parent="x0RAMHzwVSR4xcI_g-d5-1">
          <mxGeometry relative="1" as="geometry">
            <mxPoint x="455" y="1209.5" as="sourcePoint" />
            <mxPoint x="245.5" y="1209.63" as="targetPoint" />
          </mxGeometry>
        </mxCell>
        <mxCell id="pDB0O-3MZXtTZ92TBe9p-1" value="" style="html=1;points=[];perimeter=orthogonalPerimeter;" vertex="1" parent="x0RAMHzwVSR4xcI_g-d5-1">
          <mxGeometry x="445" y="1120" width="10" height="90" as="geometry" />
        </mxCell>
        <mxCell id="pDB0O-3MZXtTZ92TBe9p-2" value="" style="html=1;points=[];perimeter=orthogonalPerimeter;" vertex="1" parent="x0RAMHzwVSR4xcI_g-d5-1">
          <mxGeometry x="675" y="1140" width="10" height="40" as="geometry" />
        </mxCell>
        <mxCell id="pDB0O-3MZXtTZ92TBe9p-3" value="" style="html=1;points=[];perimeter=orthogonalPerimeter;" vertex="1" parent="x0RAMHzwVSR4xcI_g-d5-1">
          <mxGeometry x="235" y="1120" width="10" height="100" as="geometry" />
        </mxCell>
        <mxCell id="pDB0O-3MZXtTZ92TBe9p-4" value="list_product()" style="html=1;verticalAlign=bottom;endArrow=block;exitX=1;exitY=0;exitDx=0;exitDy=0;" edge="1" parent="x0RAMHzwVSR4xcI_g-d5-1">
          <mxGeometry relative="1" as="geometry">
            <mxPoint x="235" y="1120" as="sourcePoint" />
            <mxPoint x="445" y="1120" as="targetPoint" />
          </mxGeometry>
        </mxCell>
        <mxCell id="pDB0O-3MZXtTZ92TBe9p-5" value="get_product_list()" style="html=1;verticalAlign=bottom;endArrow=block;" edge="1" parent="x0RAMHzwVSR4xcI_g-d5-1">
          <mxGeometry relative="1" as="geometry">
            <mxPoint x="452" y="1140" as="sourcePoint" />
            <mxPoint x="675" y="1140" as="targetPoint" />
          </mxGeometry>
        </mxCell>
        <mxCell id="pDB0O-3MZXtTZ92TBe9p-6" value="" style="html=1;verticalAlign=bottom;endArrow=block;exitX=1;exitY=0;exitDx=0;exitDy=0;dashed=1;" edge="1" parent="x0RAMHzwVSR4xcI_g-d5-1">
          <mxGeometry relative="1" as="geometry">
            <mxPoint x="674.5" y="1180" as="sourcePoint" />
            <mxPoint x="455" y="1180" as="targetPoint" />
          </mxGeometry>
        </mxCell>
        <mxCell id="pDB0O-3MZXtTZ92TBe9p-7" value="return product_list" style="edgeLabel;html=1;align=center;verticalAlign=middle;resizable=0;points=[];" vertex="1" connectable="0" parent="pDB0O-3MZXtTZ92TBe9p-6">
          <mxGeometry x="-0.0934" y="3" relative="1" as="geometry">
            <mxPoint y="-13" as="offset" />
          </mxGeometry>
        </mxCell>
      </root>
    </mxGraphModel>
  </diagram>
  <diagram name="ManageProductType_Sequence" id="Ft_WyRy5GRnrWHIDc0_l">
    <mxGraphModel dx="1422" dy="745" grid="1" gridSize="10" guides="1" tooltips="1" connect="1" arrows="1" fold="1" page="1" pageScale="1" pageWidth="1100" pageHeight="850" math="0" shadow="0">
      <root>
        <mxCell id="3k_U_kLtVOBk_k5lfRzv-0" />
        <mxCell id="3k_U_kLtVOBk_k5lfRzv-1" parent="3k_U_kLtVOBk_k5lfRzv-0" />
        <mxCell id="z-fRWSrNKufV2ZNs0v7e-8" value="&lt;span style=&quot;text-align: left&quot;&gt;display_product&lt;/span&gt;_type&lt;span style=&quot;text-align: left&quot;&gt;_list()&lt;/span&gt;" style="html=1;verticalAlign=bottom;endArrow=block;exitX=1;exitY=0;exitDx=0;exitDy=0;dashed=1;entryX=1;entryY=0.667;entryDx=0;entryDy=0;entryPerimeter=0;" edge="1" parent="3k_U_kLtVOBk_k5lfRzv-1">
          <mxGeometry relative="1" as="geometry">
            <mxPoint x="455.0000000000001" y="1209.5" as="sourcePoint" />
            <mxPoint x="245.5000000000001" y="1209.63" as="targetPoint" />
          </mxGeometry>
        </mxCell>
        <mxCell id="3k_U_kLtVOBk_k5lfRzv-2" value="&lt;span style=&quot;text-align: left&quot;&gt;display_product&lt;/span&gt;_type&lt;span style=&quot;text-align: left&quot;&gt;()&lt;/span&gt;" style="html=1;verticalAlign=bottom;endArrow=block;exitX=1;exitY=0;exitDx=0;exitDy=0;dashed=1;" edge="1" parent="3k_U_kLtVOBk_k5lfRzv-1">
          <mxGeometry relative="1" as="geometry">
            <mxPoint x="452.25" y="580" as="sourcePoint" />
            <mxPoint x="247.75" y="580" as="targetPoint" />
          </mxGeometry>
        </mxCell>
        <mxCell id="3k_U_kLtVOBk_k5lfRzv-3" value="update_product_type()" style="html=1;verticalAlign=bottom;endArrow=block;exitX=1;exitY=0;exitDx=0;exitDy=0;" edge="1" parent="3k_U_kLtVOBk_k5lfRzv-1" target="3k_U_kLtVOBk_k5lfRzv-16">
          <mxGeometry relative="1" as="geometry">
            <mxPoint x="235" y="474" as="sourcePoint" />
            <mxPoint x="439.5" y="474" as="targetPoint" />
          </mxGeometry>
        </mxCell>
        <mxCell id="3k_U_kLtVOBk_k5lfRzv-4" value="add_product_type()" style="html=1;verticalAlign=bottom;endArrow=block;exitX=1;exitY=0;exitDx=0;exitDy=0;" edge="1" parent="3k_U_kLtVOBk_k5lfRzv-1" target="3k_U_kLtVOBk_k5lfRzv-8">
          <mxGeometry relative="1" as="geometry">
            <mxPoint x="235" y="204" as="sourcePoint" />
            <mxPoint x="439.5" y="204" as="targetPoint" />
          </mxGeometry>
        </mxCell>
        <mxCell id="3k_U_kLtVOBk_k5lfRzv-5" value="" style="shape=umlLifeline;participant=umlActor;perimeter=lifelinePerimeter;whiteSpace=wrap;html=1;container=1;collapsible=0;recursiveResize=0;verticalAlign=top;spacingTop=36;outlineConnect=0;fillColor=none;" vertex="1" parent="3k_U_kLtVOBk_k5lfRzv-1">
          <mxGeometry x="230" y="80" width="20" height="1160" as="geometry" />
        </mxCell>
        <mxCell id="3k_U_kLtVOBk_k5lfRzv-6" value="" style="html=1;points=[];perimeter=orthogonalPerimeter;" vertex="1" parent="3k_U_kLtVOBk_k5lfRzv-5">
          <mxGeometry x="5" y="120" width="10" height="130" as="geometry" />
        </mxCell>
        <mxCell id="3k_U_kLtVOBk_k5lfRzv-7" value="Website" style="shape=umlLifeline;perimeter=lifelinePerimeter;whiteSpace=wrap;html=1;container=1;collapsible=0;recursiveResize=0;outlineConnect=0;fillColor=none;" vertex="1" parent="3k_U_kLtVOBk_k5lfRzv-1">
          <mxGeometry x="400" y="80" width="100" height="1160" as="geometry" />
        </mxCell>
        <mxCell id="3k_U_kLtVOBk_k5lfRzv-8" value="" style="html=1;points=[];perimeter=orthogonalPerimeter;" vertex="1" parent="3k_U_kLtVOBk_k5lfRzv-7">
          <mxGeometry x="45" y="120" width="10" height="120" as="geometry" />
        </mxCell>
        <mxCell id="3k_U_kLtVOBk_k5lfRzv-9" value="" style="html=1;points=[];perimeter=orthogonalPerimeter;" vertex="1" parent="3k_U_kLtVOBk_k5lfRzv-7">
          <mxGeometry x="-165" y="280" width="10" height="230" as="geometry" />
        </mxCell>
        <mxCell id="z-fRWSrNKufV2ZNs0v7e-2" value="" style="html=1;points=[];perimeter=orthogonalPerimeter;" vertex="1" parent="3k_U_kLtVOBk_k5lfRzv-7">
          <mxGeometry x="45" y="1040" width="10" height="90" as="geometry" />
        </mxCell>
        <mxCell id="3k_U_kLtVOBk_k5lfRzv-10" value="SQL" style="shape=umlLifeline;perimeter=lifelinePerimeter;whiteSpace=wrap;html=1;container=1;collapsible=0;recursiveResize=0;outlineConnect=0;fillColor=none;" vertex="1" parent="3k_U_kLtVOBk_k5lfRzv-1">
          <mxGeometry x="630" y="80" width="100" height="1160" as="geometry" />
        </mxCell>
        <mxCell id="3k_U_kLtVOBk_k5lfRzv-11" value="" style="html=1;points=[];perimeter=orthogonalPerimeter;" vertex="1" parent="3k_U_kLtVOBk_k5lfRzv-10">
          <mxGeometry x="45" y="160" width="10" height="40" as="geometry" />
        </mxCell>
        <mxCell id="z-fRWSrNKufV2ZNs0v7e-3" value="" style="html=1;points=[];perimeter=orthogonalPerimeter;" vertex="1" parent="3k_U_kLtVOBk_k5lfRzv-10">
          <mxGeometry x="45" y="1060" width="10" height="40" as="geometry" />
        </mxCell>
        <mxCell id="3k_U_kLtVOBk_k5lfRzv-12" value="store_product_type()" style="html=1;verticalAlign=bottom;endArrow=block;" edge="1" parent="3k_U_kLtVOBk_k5lfRzv-1">
          <mxGeometry relative="1" as="geometry">
            <mxPoint x="455" y="240" as="sourcePoint" />
            <mxPoint x="678" y="240" as="targetPoint" />
          </mxGeometry>
        </mxCell>
        <mxCell id="3k_U_kLtVOBk_k5lfRzv-13" value="" style="html=1;verticalAlign=bottom;endArrow=block;exitX=1;exitY=0;exitDx=0;exitDy=0;dashed=1;" edge="1" parent="3k_U_kLtVOBk_k5lfRzv-1">
          <mxGeometry relative="1" as="geometry">
            <mxPoint x="674.5" y="280" as="sourcePoint" />
            <mxPoint x="455" y="280" as="targetPoint" />
          </mxGeometry>
        </mxCell>
        <mxCell id="3k_U_kLtVOBk_k5lfRzv-14" value="&lt;span style=&quot;text-align: left&quot;&gt;display_product&lt;/span&gt;_type&lt;span style=&quot;text-align: left&quot;&gt;()&lt;/span&gt;" style="html=1;verticalAlign=bottom;endArrow=block;exitX=1;exitY=0;exitDx=0;exitDy=0;dashed=1;" edge="1" parent="3k_U_kLtVOBk_k5lfRzv-1">
          <mxGeometry relative="1" as="geometry">
            <mxPoint x="452.25" y="310" as="sourcePoint" />
            <mxPoint x="247.75" y="310" as="targetPoint" />
          </mxGeometry>
        </mxCell>
        <mxCell id="3k_U_kLtVOBk_k5lfRzv-15" value="Staff/Manager" style="text;html=1;strokeColor=none;fillColor=none;align=center;verticalAlign=middle;whiteSpace=wrap;rounded=0;" vertex="1" parent="3k_U_kLtVOBk_k5lfRzv-1">
          <mxGeometry x="220" y="50" width="40" height="20" as="geometry" />
        </mxCell>
        <mxCell id="3k_U_kLtVOBk_k5lfRzv-16" value="" style="html=1;points=[];perimeter=orthogonalPerimeter;" vertex="1" parent="3k_U_kLtVOBk_k5lfRzv-1">
          <mxGeometry x="445" y="370" width="10" height="220" as="geometry" />
        </mxCell>
        <mxCell id="3k_U_kLtVOBk_k5lfRzv-17" value="" style="html=1;points=[];perimeter=orthogonalPerimeter;" vertex="1" parent="3k_U_kLtVOBk_k5lfRzv-1">
          <mxGeometry x="675" y="510" width="10" height="40" as="geometry" />
        </mxCell>
        <mxCell id="3k_U_kLtVOBk_k5lfRzv-18" value="update_product_type()" style="html=1;verticalAlign=bottom;endArrow=block;" edge="1" parent="3k_U_kLtVOBk_k5lfRzv-1">
          <mxGeometry relative="1" as="geometry">
            <mxPoint x="455" y="510" as="sourcePoint" />
            <mxPoint x="678" y="510" as="targetPoint" />
          </mxGeometry>
        </mxCell>
        <mxCell id="3k_U_kLtVOBk_k5lfRzv-19" value="" style="html=1;verticalAlign=bottom;endArrow=block;exitX=1;exitY=0;exitDx=0;exitDy=0;dashed=1;" edge="1" parent="3k_U_kLtVOBk_k5lfRzv-1">
          <mxGeometry relative="1" as="geometry">
            <mxPoint x="674.5" y="550" as="sourcePoint" />
            <mxPoint x="455" y="550" as="targetPoint" />
          </mxGeometry>
        </mxCell>
        <mxCell id="3k_U_kLtVOBk_k5lfRzv-20" value="check_permission()" style="edgeStyle=orthogonalEdgeStyle;html=1;align=left;spacingLeft=2;endArrow=block;rounded=0;entryX=1;entryY=0;" edge="1" parent="3k_U_kLtVOBk_k5lfRzv-1">
          <mxGeometry relative="1" as="geometry">
            <mxPoint x="450" y="640" as="sourcePoint" />
            <Array as="points">
              <mxPoint x="475" y="640" />
            </Array>
            <mxPoint x="455" y="660" as="targetPoint" />
          </mxGeometry>
        </mxCell>
        <mxCell id="3k_U_kLtVOBk_k5lfRzv-21" value="opt" style="shape=umlFrame;whiteSpace=wrap;html=1;width=50;height=20;" vertex="1" parent="3k_U_kLtVOBk_k5lfRzv-1">
          <mxGeometry x="98.11" y="810" width="630" height="260" as="geometry" />
        </mxCell>
        <mxCell id="3k_U_kLtVOBk_k5lfRzv-22" value="prompt_comfirmative()" style="html=1;verticalAlign=bottom;endArrow=block;exitX=1;exitY=0;exitDx=0;exitDy=0;" edge="1" parent="3k_U_kLtVOBk_k5lfRzv-1">
          <mxGeometry relative="1" as="geometry">
            <mxPoint x="453.1100000000001" y="760" as="sourcePoint" />
            <mxPoint x="243.11000000000013" y="760" as="targetPoint" />
          </mxGeometry>
        </mxCell>
        <mxCell id="3k_U_kLtVOBk_k5lfRzv-23" value="&lt;span style=&quot;text-align: left&quot;&gt;display_product&lt;/span&gt;_type&lt;span style=&quot;text-align: left&quot;&gt;_deleted()&lt;/span&gt;" style="html=1;verticalAlign=bottom;endArrow=block;exitX=1;exitY=0;exitDx=0;exitDy=0;dashed=1;entryX=1;entryY=0.667;entryDx=0;entryDy=0;entryPerimeter=0;" edge="1" parent="3k_U_kLtVOBk_k5lfRzv-1">
          <mxGeometry relative="1" as="geometry">
            <mxPoint x="452.6100000000001" y="920" as="sourcePoint" />
            <mxPoint x="243.11000000000013" y="920.1300000000001" as="targetPoint" />
          </mxGeometry>
        </mxCell>
        <mxCell id="3k_U_kLtVOBk_k5lfRzv-24" value="&lt;span style=&quot;text-align: left&quot;&gt;display(&quot;Operation aborted&quot;)&lt;/span&gt;" style="html=1;verticalAlign=bottom;endArrow=block;exitX=1;exitY=0;exitDx=0;exitDy=0;dashed=1;entryX=1.08;entryY=0.924;entryDx=0;entryDy=0;entryPerimeter=0;" edge="1" parent="3k_U_kLtVOBk_k5lfRzv-1">
          <mxGeometry relative="1" as="geometry">
            <mxPoint x="452.6100000000001" y="1020" as="sourcePoint" />
            <mxPoint x="243.9100000000003" y="1020.3599999999999" as="targetPoint" />
          </mxGeometry>
        </mxCell>
        <mxCell id="3k_U_kLtVOBk_k5lfRzv-25" value="delete_product_type()" style="html=1;verticalAlign=bottom;endArrow=block;exitX=1;exitY=0;exitDx=0;exitDy=0;" edge="1" parent="3k_U_kLtVOBk_k5lfRzv-1">
          <mxGeometry relative="1" as="geometry">
            <mxPoint x="235" y="714" as="sourcePoint" />
            <mxPoint x="445" y="714" as="targetPoint" />
          </mxGeometry>
        </mxCell>
        <mxCell id="3k_U_kLtVOBk_k5lfRzv-26" value="" style="html=1;points=[];perimeter=orthogonalPerimeter;" vertex="1" parent="3k_U_kLtVOBk_k5lfRzv-1">
          <mxGeometry x="235" y="630" width="10" height="420" as="geometry" />
        </mxCell>
        <mxCell id="3k_U_kLtVOBk_k5lfRzv-27" value="" style="html=1;points=[];perimeter=orthogonalPerimeter;" vertex="1" parent="3k_U_kLtVOBk_k5lfRzv-1">
          <mxGeometry x="445" y="630" width="10" height="400" as="geometry" />
        </mxCell>
        <mxCell id="3k_U_kLtVOBk_k5lfRzv-28" value="" style="html=1;points=[];perimeter=orthogonalPerimeter;" vertex="1" parent="3k_U_kLtVOBk_k5lfRzv-1">
          <mxGeometry x="675.36" y="850" width="10" height="40" as="geometry" />
        </mxCell>
        <mxCell id="3k_U_kLtVOBk_k5lfRzv-29" value="delete_product_type()" style="html=1;verticalAlign=bottom;endArrow=block;" edge="1" parent="3k_U_kLtVOBk_k5lfRzv-1">
          <mxGeometry relative="1" as="geometry">
            <mxPoint x="455.3600000000001" y="850" as="sourcePoint" />
            <mxPoint x="678.3600000000001" y="850" as="targetPoint" />
          </mxGeometry>
        </mxCell>
        <mxCell id="3k_U_kLtVOBk_k5lfRzv-30" value="" style="html=1;verticalAlign=bottom;endArrow=block;exitX=1;exitY=0;exitDx=0;exitDy=0;dashed=1;" edge="1" parent="3k_U_kLtVOBk_k5lfRzv-1">
          <mxGeometry relative="1" as="geometry">
            <mxPoint x="674.8600000000001" y="890" as="sourcePoint" />
            <mxPoint x="455.3600000000001" y="890" as="targetPoint" />
          </mxGeometry>
        </mxCell>
        <mxCell id="3k_U_kLtVOBk_k5lfRzv-31" value="select_product&lt;span style=&quot;text-align: center&quot;&gt;_type&lt;/span&gt;()" style="edgeStyle=orthogonalEdgeStyle;html=1;align=left;spacingLeft=2;endArrow=block;rounded=0;" edge="1" parent="3k_U_kLtVOBk_k5lfRzv-1">
          <mxGeometry x="-0.4272" y="10" relative="1" as="geometry">
            <mxPoint x="240" y="630" as="sourcePoint" />
            <Array as="points">
              <mxPoint x="410" y="630" />
              <mxPoint x="410" y="630" />
            </Array>
            <mxPoint x="449.5" y="630" as="targetPoint" />
            <mxPoint as="offset" />
          </mxGeometry>
        </mxCell>
        <mxCell id="3k_U_kLtVOBk_k5lfRzv-32" value="confirmation = YES" style="text;html=1;align=center;verticalAlign=middle;resizable=0;points=[];autosize=1;" vertex="1" parent="3k_U_kLtVOBk_k5lfRzv-1">
          <mxGeometry x="98.11" y="830" width="120" height="20" as="geometry" />
        </mxCell>
        <mxCell id="3k_U_kLtVOBk_k5lfRzv-33" value="&lt;span style=&quot;text-align: left&quot;&gt;return confirmation&lt;/span&gt;" style="html=1;verticalAlign=bottom;endArrow=block;exitX=1;exitY=0;exitDx=0;exitDy=0;dashed=1;entryX=0.04;entryY=0.28;entryDx=0;entryDy=0;entryPerimeter=0;" edge="1" parent="3k_U_kLtVOBk_k5lfRzv-1">
          <mxGeometry relative="1" as="geometry">
            <mxPoint x="243.11000000000013" y="800" as="sourcePoint" />
            <mxPoint x="443.5100000000002" y="799.6000000000001" as="targetPoint" />
          </mxGeometry>
        </mxCell>
        <mxCell id="3k_U_kLtVOBk_k5lfRzv-34" value="" style="endArrow=none;html=1;entryX=1.003;entryY=0.542;entryDx=0;entryDy=0;entryPerimeter=0;" edge="1" parent="3k_U_kLtVOBk_k5lfRzv-1" target="3k_U_kLtVOBk_k5lfRzv-21">
          <mxGeometry width="50" height="50" relative="1" as="geometry">
            <mxPoint x="98.1099999999999" y="950" as="sourcePoint" />
            <mxPoint x="568.11" y="770" as="targetPoint" />
          </mxGeometry>
        </mxCell>
        <mxCell id="3k_U_kLtVOBk_k5lfRzv-35" value="confirmation = NO" style="text;html=1;align=center;verticalAlign=middle;resizable=0;points=[];autosize=1;" vertex="1" parent="3k_U_kLtVOBk_k5lfRzv-1">
          <mxGeometry x="98.11" y="950" width="110" height="20" as="geometry" />
        </mxCell>
        <mxCell id="3k_U_kLtVOBk_k5lfRzv-36" value="&lt;span style=&quot;text-align: left&quot;&gt;display_available_option()&lt;/span&gt;" style="html=1;verticalAlign=bottom;endArrow=block;dashed=1;" edge="1" parent="3k_U_kLtVOBk_k5lfRzv-1" target="3k_U_kLtVOBk_k5lfRzv-26">
          <mxGeometry relative="1" as="geometry">
            <mxPoint x="450" y="680" as="sourcePoint" />
            <mxPoint x="250.00000000000034" y="680.3599999999999" as="targetPoint" />
          </mxGeometry>
        </mxCell>
        <mxCell id="3k_U_kLtVOBk_k5lfRzv-37" value="check_permission()" style="edgeStyle=orthogonalEdgeStyle;html=1;align=left;spacingLeft=2;endArrow=block;rounded=0;entryX=1;entryY=0;" edge="1" parent="3k_U_kLtVOBk_k5lfRzv-1">
          <mxGeometry relative="1" as="geometry">
            <mxPoint x="455" y="380" as="sourcePoint" />
            <Array as="points">
              <mxPoint x="480" y="380" />
            </Array>
            <mxPoint x="460" y="400" as="targetPoint" />
          </mxGeometry>
        </mxCell>
        <mxCell id="3k_U_kLtVOBk_k5lfRzv-38" value="select_product&lt;span style=&quot;text-align: center&quot;&gt;_type&lt;/span&gt;()" style="edgeStyle=orthogonalEdgeStyle;html=1;align=left;spacingLeft=2;endArrow=block;rounded=0;entryX=0.086;entryY=-0.003;entryDx=0;entryDy=0;entryPerimeter=0;" edge="1" parent="3k_U_kLtVOBk_k5lfRzv-1" target="3k_U_kLtVOBk_k5lfRzv-16">
          <mxGeometry x="-0.4272" y="10" relative="1" as="geometry">
            <mxPoint x="245" y="370" as="sourcePoint" />
            <Array as="points">
              <mxPoint x="415" y="370" />
            </Array>
            <mxPoint x="440" y="370" as="targetPoint" />
            <mxPoint as="offset" />
          </mxGeometry>
        </mxCell>
        <mxCell id="3k_U_kLtVOBk_k5lfRzv-39" value="&lt;span style=&quot;text-align: left&quot;&gt;display_available_option()&lt;/span&gt;" style="html=1;verticalAlign=bottom;endArrow=block;dashed=1;" edge="1" parent="3k_U_kLtVOBk_k5lfRzv-1">
          <mxGeometry relative="1" as="geometry">
            <mxPoint x="455" y="420" as="sourcePoint" />
            <mxPoint x="250" y="420" as="targetPoint" />
          </mxGeometry>
        </mxCell>
        <mxCell id="3k_U_kLtVOBk_k5lfRzv-40" value="Check permission:&lt;br&gt;- Staff/Manager: Has permission to update/delete any product&amp;nbsp;&lt;span style=&quot;font-size: 11px ; text-align: center ; background-color: rgb(255 , 255 , 255)&quot;&gt;type&lt;/span&gt;&lt;br&gt;- Client: Has only permission to view" style="shape=note;whiteSpace=wrap;html=1;size=14;verticalAlign=top;align=left;spacingTop=-6;" vertex="1" parent="3k_U_kLtVOBk_k5lfRzv-1">
          <mxGeometry x="730" y="350" width="220" height="70" as="geometry" />
        </mxCell>
        <mxCell id="3k_U_kLtVOBk_k5lfRzv-41" value="" style="endArrow=none;html=1;entryX=0;entryY=0.5;entryDx=0;entryDy=0;entryPerimeter=0;dashed=1;" edge="1" parent="3k_U_kLtVOBk_k5lfRzv-1" target="3k_U_kLtVOBk_k5lfRzv-40">
          <mxGeometry width="50" height="50" relative="1" as="geometry">
            <mxPoint x="580" y="390" as="sourcePoint" />
            <mxPoint x="580" y="380" as="targetPoint" />
          </mxGeometry>
        </mxCell>
        <mxCell id="3k_U_kLtVOBk_k5lfRzv-42" value="" style="endArrow=none;html=1;entryX=0.5;entryY=1;entryDx=0;entryDy=0;entryPerimeter=0;dashed=1;" edge="1" parent="3k_U_kLtVOBk_k5lfRzv-1" target="3k_U_kLtVOBk_k5lfRzv-40">
          <mxGeometry width="50" height="50" relative="1" as="geometry">
            <mxPoint x="580" y="650" as="sourcePoint" />
            <mxPoint x="840.0000000000005" y="420" as="targetPoint" />
            <Array as="points">
              <mxPoint x="840" y="650" />
            </Array>
          </mxGeometry>
        </mxCell>
        <mxCell id="z-fRWSrNKufV2ZNs0v7e-0" value="" style="html=1;points=[];perimeter=orthogonalPerimeter;" vertex="1" parent="3k_U_kLtVOBk_k5lfRzv-1">
          <mxGeometry x="235" y="1120" width="10" height="100" as="geometry" />
        </mxCell>
        <mxCell id="z-fRWSrNKufV2ZNs0v7e-4" value="list_product_type()" style="html=1;verticalAlign=bottom;endArrow=block;exitX=1;exitY=0;exitDx=0;exitDy=0;" edge="1" parent="3k_U_kLtVOBk_k5lfRzv-1">
          <mxGeometry relative="1" as="geometry">
            <mxPoint x="235" y="1120" as="sourcePoint" />
            <mxPoint x="445" y="1120" as="targetPoint" />
          </mxGeometry>
        </mxCell>
        <mxCell id="z-fRWSrNKufV2ZNs0v7e-5" value="get_product_type_list()" style="html=1;verticalAlign=bottom;endArrow=block;" edge="1" parent="3k_U_kLtVOBk_k5lfRzv-1">
          <mxGeometry relative="1" as="geometry">
            <mxPoint x="452.0000000000001" y="1140" as="sourcePoint" />
            <mxPoint x="675.0000000000001" y="1140" as="targetPoint" />
          </mxGeometry>
        </mxCell>
        <mxCell id="z-fRWSrNKufV2ZNs0v7e-6" value="" style="html=1;verticalAlign=bottom;endArrow=block;exitX=1;exitY=0;exitDx=0;exitDy=0;dashed=1;" edge="1" parent="3k_U_kLtVOBk_k5lfRzv-1">
          <mxGeometry relative="1" as="geometry">
            <mxPoint x="674.5000000000001" y="1180" as="sourcePoint" />
            <mxPoint x="455.0000000000001" y="1180" as="targetPoint" />
          </mxGeometry>
        </mxCell>
        <mxCell id="z-fRWSrNKufV2ZNs0v7e-7" value="return product_type_list" style="edgeLabel;html=1;align=center;verticalAlign=middle;resizable=0;points=[];" vertex="1" connectable="0" parent="z-fRWSrNKufV2ZNs0v7e-6">
          <mxGeometry x="-0.0934" y="3" relative="1" as="geometry">
            <mxPoint y="-13" as="offset" />
          </mxGeometry>
        </mxCell>
      </root>
    </mxGraphModel>
  </diagram>
  <diagram name="ManageProductType_Activity" id="D1d6QR_dDqaj-wPVxQQn">
    <mxGraphModel dx="1422" dy="745" grid="1" gridSize="10" guides="1" tooltips="1" connect="1" arrows="1" fold="1" page="1" pageScale="1" pageWidth="1100" pageHeight="850" math="0" shadow="0">
      <root>
        <mxCell id="IRaBIjNlhVpxpxKp_-Vx-0" />
        <mxCell id="IRaBIjNlhVpxpxKp_-Vx-1" parent="IRaBIjNlhVpxpxKp_-Vx-0" />
        <mxCell id="IRaBIjNlhVpxpxKp_-Vx-2" value="Manage products" style="swimlane;html=1;childLayout=stackLayout;startSize=20;rounded=0;shadow=0;comic=0;labelBackgroundColor=none;strokeWidth=1;fontFamily=Verdana;fontSize=12;align=center;" vertex="1" parent="IRaBIjNlhVpxpxKp_-Vx-1">
          <mxGeometry x="160" y="30" width="750" height="840" as="geometry">
            <mxRectangle x="40" y="20" width="60" height="20" as="alternateBounds" />
          </mxGeometry>
        </mxCell>
        <mxCell id="IRaBIjNlhVpxpxKp_-Vx-3" value="Staff/Manager" style="swimlane;html=1;startSize=20;" vertex="1" parent="IRaBIjNlhVpxpxKp_-Vx-2">
          <mxGeometry y="20" width="250" height="820" as="geometry" />
        </mxCell>
        <mxCell id="IRaBIjNlhVpxpxKp_-Vx-4" style="edgeStyle=orthogonalEdgeStyle;rounded=0;orthogonalLoop=1;jettySize=auto;html=1;exitX=0.5;exitY=1;exitDx=0;exitDy=0;entryX=0.5;entryY=0;entryDx=0;entryDy=0;" edge="1" parent="IRaBIjNlhVpxpxKp_-Vx-3" source="IRaBIjNlhVpxpxKp_-Vx-6" target="IRaBIjNlhVpxpxKp_-Vx-12">
          <mxGeometry relative="1" as="geometry">
            <Array as="points">
              <mxPoint x="75" y="310" />
              <mxPoint x="75" y="310" />
            </Array>
          </mxGeometry>
        </mxCell>
        <mxCell id="IRaBIjNlhVpxpxKp_-Vx-5" value="[Other operation]" style="edgeLabel;html=1;align=center;verticalAlign=middle;resizable=0;points=[];rotation=-90;" vertex="1" connectable="0" parent="IRaBIjNlhVpxpxKp_-Vx-4">
          <mxGeometry x="-0.1429" y="-4" relative="1" as="geometry">
            <mxPoint x="-16" y="1.38" as="offset" />
          </mxGeometry>
        </mxCell>
        <mxCell id="IRaBIjNlhVpxpxKp_-Vx-12" value="Choose product type" style="rounded=1;whiteSpace=wrap;html=1;shadow=0;comic=0;labelBackgroundColor=none;strokeWidth=1;fontFamily=Verdana;fontSize=12;align=center;arcSize=50;" vertex="1" parent="IRaBIjNlhVpxpxKp_-Vx-3">
          <mxGeometry x="31.25" y="370" width="87.5" height="30" as="geometry" />
        </mxCell>
        <mxCell id="IRaBIjNlhVpxpxKp_-Vx-6" value="" style="rhombus;whiteSpace=wrap;html=1;" vertex="1" parent="IRaBIjNlhVpxpxKp_-Vx-3">
          <mxGeometry x="50" y="230" width="50" height="50" as="geometry" />
        </mxCell>
        <mxCell id="IRaBIjNlhVpxpxKp_-Vx-7" style="edgeStyle=orthogonalEdgeStyle;rounded=0;orthogonalLoop=1;jettySize=auto;html=1;exitX=0;exitY=0.5;exitDx=0;exitDy=0;entryX=0.5;entryY=0;entryDx=0;entryDy=0;" edge="1" parent="IRaBIjNlhVpxpxKp_-Vx-3" source="IRaBIjNlhVpxpxKp_-Vx-20" target="IRaBIjNlhVpxpxKp_-Vx-6">
          <mxGeometry relative="1" as="geometry" />
        </mxCell>
        <mxCell id="IRaBIjNlhVpxpxKp_-Vx-8" style="edgeStyle=orthogonalEdgeStyle;rounded=0;html=1;labelBackgroundColor=none;startArrow=none;startFill=0;startSize=5;endArrow=classicThin;endFill=1;endSize=5;jettySize=auto;orthogonalLoop=1;strokeWidth=1;fontFamily=Verdana;fontSize=12" edge="1" parent="IRaBIjNlhVpxpxKp_-Vx-3" source="IRaBIjNlhVpxpxKp_-Vx-19" target="IRaBIjNlhVpxpxKp_-Vx-20">
          <mxGeometry relative="1" as="geometry" />
        </mxCell>
        <mxCell id="IRaBIjNlhVpxpxKp_-Vx-9" style="edgeStyle=orthogonalEdgeStyle;rounded=0;orthogonalLoop=1;jettySize=auto;html=1;exitX=1;exitY=0.5;exitDx=0;exitDy=0;entryX=0.5;entryY=0;entryDx=0;entryDy=0;" edge="1" parent="IRaBIjNlhVpxpxKp_-Vx-3" source="IRaBIjNlhVpxpxKp_-Vx-6" target="IRaBIjNlhVpxpxKp_-Vx-21">
          <mxGeometry relative="1" as="geometry" />
        </mxCell>
        <mxCell id="IRaBIjNlhVpxpxKp_-Vx-10" value="[Add product type]" style="edgeLabel;html=1;align=center;verticalAlign=middle;resizable=0;points=[];" vertex="1" connectable="0" parent="IRaBIjNlhVpxpxKp_-Vx-9">
          <mxGeometry x="-0.3231" relative="1" as="geometry">
            <mxPoint x="14" y="-15" as="offset" />
          </mxGeometry>
        </mxCell>
        <mxCell id="IRaBIjNlhVpxpxKp_-Vx-11" style="edgeStyle=orthogonalEdgeStyle;rounded=0;orthogonalLoop=1;jettySize=auto;html=1;exitX=0.5;exitY=1;exitDx=0;exitDy=0;entryX=0.5;entryY=0;entryDx=0;entryDy=0;" edge="1" parent="IRaBIjNlhVpxpxKp_-Vx-3" source="IRaBIjNlhVpxpxKp_-Vx-12" target="IRaBIjNlhVpxpxKp_-Vx-17">
          <mxGeometry relative="1" as="geometry" />
        </mxCell>
        <mxCell id="IRaBIjNlhVpxpxKp_-Vx-13" style="edgeStyle=orthogonalEdgeStyle;rounded=0;orthogonalLoop=1;jettySize=auto;html=1;exitX=1;exitY=0.5;exitDx=0;exitDy=0;entryX=0.5;entryY=0;entryDx=0;entryDy=0;" edge="1" parent="IRaBIjNlhVpxpxKp_-Vx-3" source="IRaBIjNlhVpxpxKp_-Vx-17" target="IRaBIjNlhVpxpxKp_-Vx-22">
          <mxGeometry relative="1" as="geometry" />
        </mxCell>
        <mxCell id="IRaBIjNlhVpxpxKp_-Vx-14" value="[Update product]" style="edgeLabel;html=1;align=center;verticalAlign=middle;resizable=0;points=[];rotation=0;" vertex="1" connectable="0" parent="IRaBIjNlhVpxpxKp_-Vx-13">
          <mxGeometry x="-0.56" y="-1" relative="1" as="geometry">
            <mxPoint x="18.33" y="-16" as="offset" />
          </mxGeometry>
        </mxCell>
        <mxCell id="IRaBIjNlhVpxpxKp_-Vx-15" style="edgeStyle=orthogonalEdgeStyle;rounded=0;orthogonalLoop=1;jettySize=auto;html=1;exitX=0.5;exitY=1;exitDx=0;exitDy=0;entryX=0;entryY=0.5;entryDx=0;entryDy=0;" edge="1" parent="IRaBIjNlhVpxpxKp_-Vx-3" source="IRaBIjNlhVpxpxKp_-Vx-17" target="IRaBIjNlhVpxpxKp_-Vx-18">
          <mxGeometry relative="1" as="geometry">
            <mxPoint x="95" y="565" as="targetPoint" />
          </mxGeometry>
        </mxCell>
        <mxCell id="IRaBIjNlhVpxpxKp_-Vx-16" value="[Delete product]" style="edgeLabel;html=1;align=center;verticalAlign=middle;resizable=0;points=[];rotation=-90;" vertex="1" connectable="0" parent="IRaBIjNlhVpxpxKp_-Vx-15">
          <mxGeometry x="-0.3424" y="-1" relative="1" as="geometry">
            <mxPoint x="-14" y="2" as="offset" />
          </mxGeometry>
        </mxCell>
        <mxCell id="IRaBIjNlhVpxpxKp_-Vx-17" value="" style="rhombus;whiteSpace=wrap;html=1;" vertex="1" parent="IRaBIjNlhVpxpxKp_-Vx-3">
          <mxGeometry x="50" y="430" width="50" height="50" as="geometry" />
        </mxCell>
        <mxCell id="IRaBIjNlhVpxpxKp_-Vx-18" value="" style="rhombus;whiteSpace=wrap;html=1;" vertex="1" parent="IRaBIjNlhVpxpxKp_-Vx-3">
          <mxGeometry x="95" y="550" width="50" height="50" as="geometry" />
        </mxCell>
        <mxCell id="IRaBIjNlhVpxpxKp_-Vx-19" value="" style="ellipse;whiteSpace=wrap;html=1;rounded=0;shadow=0;comic=0;labelBackgroundColor=none;strokeWidth=1;fillColor=#000000;fontFamily=Verdana;fontSize=12;align=center;" vertex="1" parent="IRaBIjNlhVpxpxKp_-Vx-3">
          <mxGeometry x="130" y="40" width="40" height="40" as="geometry" />
        </mxCell>
        <mxCell id="IRaBIjNlhVpxpxKp_-Vx-20" value="Login" style="rounded=1;whiteSpace=wrap;html=1;shadow=0;comic=0;labelBackgroundColor=none;strokeWidth=1;fontFamily=Verdana;fontSize=12;align=center;arcSize=50;" vertex="1" parent="IRaBIjNlhVpxpxKp_-Vx-3">
          <mxGeometry x="100" y="130" width="100" height="30" as="geometry" />
        </mxCell>
        <mxCell id="IRaBIjNlhVpxpxKp_-Vx-21" value="Input new&amp;nbsp;product type infomation" style="rounded=1;whiteSpace=wrap;html=1;shadow=0;comic=0;labelBackgroundColor=none;strokeWidth=1;fontFamily=Verdana;fontSize=12;align=center;arcSize=50;" vertex="1" parent="IRaBIjNlhVpxpxKp_-Vx-3">
          <mxGeometry x="105" y="280" width="125" height="30" as="geometry" />
        </mxCell>
        <mxCell id="IRaBIjNlhVpxpxKp_-Vx-22" value="Update product infomation" style="rounded=1;whiteSpace=wrap;html=1;shadow=0;comic=0;labelBackgroundColor=none;strokeWidth=1;fontFamily=Verdana;fontSize=12;align=center;arcSize=50;" vertex="1" parent="IRaBIjNlhVpxpxKp_-Vx-3">
          <mxGeometry x="95" y="490" width="135" height="30" as="geometry" />
        </mxCell>
        <mxCell id="IRaBIjNlhVpxpxKp_-Vx-23" value="Website" style="swimlane;html=1;startSize=20;" vertex="1" parent="IRaBIjNlhVpxpxKp_-Vx-2">
          <mxGeometry x="250" y="20" width="250" height="820" as="geometry" />
        </mxCell>
        <mxCell id="IRaBIjNlhVpxpxKp_-Vx-24" style="edgeStyle=orthogonalEdgeStyle;rounded=0;orthogonalLoop=1;jettySize=auto;html=1;exitX=1;exitY=0.5;exitDx=0;exitDy=0;entryX=0.5;entryY=1;entryDx=0;entryDy=0;" edge="1" parent="IRaBIjNlhVpxpxKp_-Vx-23" source="IRaBIjNlhVpxpxKp_-Vx-36" target="IRaBIjNlhVpxpxKp_-Vx-25">
          <mxGeometry relative="1" as="geometry">
            <Array as="points">
              <mxPoint x="230" y="295" />
              <mxPoint x="230" y="710" />
              <mxPoint x="51" y="710" />
            </Array>
          </mxGeometry>
        </mxCell>
        <mxCell id="IRaBIjNlhVpxpxKp_-Vx-25" value="" style="shape=mxgraph.bpmn.shape;html=1;verticalLabelPosition=bottom;labelBackgroundColor=#ffffff;verticalAlign=top;perimeter=ellipsePerimeter;outline=end;symbol=terminate;rounded=0;shadow=0;comic=0;strokeWidth=1;fontFamily=Verdana;fontSize=12;align=center;" vertex="1" parent="IRaBIjNlhVpxpxKp_-Vx-23">
          <mxGeometry x="31.25" y="640" width="40" height="40" as="geometry" />
        </mxCell>
        <mxCell id="IRaBIjNlhVpxpxKp_-Vx-28" style="edgeStyle=orthogonalEdgeStyle;rounded=0;orthogonalLoop=1;jettySize=auto;html=1;exitX=1;exitY=0.5;exitDx=0;exitDy=0;entryX=0;entryY=0.5;entryDx=0;entryDy=0;" edge="1" parent="IRaBIjNlhVpxpxKp_-Vx-23" source="IRaBIjNlhVpxpxKp_-Vx-29" target="IRaBIjNlhVpxpxKp_-Vx-36">
          <mxGeometry relative="1" as="geometry" />
        </mxCell>
        <mxCell id="IRaBIjNlhVpxpxKp_-Vx-27" value="Update product type" style="rounded=1;whiteSpace=wrap;html=1;shadow=0;comic=0;labelBackgroundColor=none;strokeWidth=1;fontFamily=Verdana;fontSize=12;align=center;arcSize=50;" vertex="1" parent="IRaBIjNlhVpxpxKp_-Vx-23">
          <mxGeometry x="12.5" y="480" width="77.5" height="50" as="geometry" />
        </mxCell>
        <mxCell id="IRaBIjNlhVpxpxKp_-Vx-29" value="Add product type" style="rounded=1;whiteSpace=wrap;html=1;shadow=0;comic=0;labelBackgroundColor=none;strokeWidth=1;fontFamily=Verdana;fontSize=12;align=center;arcSize=50;" vertex="1" parent="IRaBIjNlhVpxpxKp_-Vx-23">
          <mxGeometry x="22.5" y="280" width="87.5" height="30" as="geometry" />
        </mxCell>
        <mxCell id="IRaBIjNlhVpxpxKp_-Vx-30" style="edgeStyle=orthogonalEdgeStyle;rounded=0;orthogonalLoop=1;jettySize=auto;html=1;exitX=1;exitY=0.5;exitDx=0;exitDy=0;entryX=1;entryY=0.5;entryDx=0;entryDy=0;" edge="1" parent="IRaBIjNlhVpxpxKp_-Vx-23" source="IRaBIjNlhVpxpxKp_-Vx-34" target="IRaBIjNlhVpxpxKp_-Vx-25">
          <mxGeometry relative="1" as="geometry">
            <Array as="points">
              <mxPoint x="210" y="505" />
              <mxPoint x="210" y="660" />
            </Array>
          </mxGeometry>
        </mxCell>
        <mxCell id="IRaBIjNlhVpxpxKp_-Vx-31" style="edgeStyle=orthogonalEdgeStyle;rounded=0;orthogonalLoop=1;jettySize=auto;html=1;exitX=1;exitY=0.5;exitDx=0;exitDy=0;entryX=0;entryY=0.5;entryDx=0;entryDy=0;" edge="1" parent="IRaBIjNlhVpxpxKp_-Vx-23" source="IRaBIjNlhVpxpxKp_-Vx-26" target="IRaBIjNlhVpxpxKp_-Vx-35">
          <mxGeometry relative="1" as="geometry" />
        </mxCell>
        <mxCell id="IRaBIjNlhVpxpxKp_-Vx-32" style="edgeStyle=orthogonalEdgeStyle;rounded=0;orthogonalLoop=1;jettySize=auto;html=1;exitX=0.5;exitY=1;exitDx=0;exitDy=0;" edge="1" parent="IRaBIjNlhVpxpxKp_-Vx-23" source="IRaBIjNlhVpxpxKp_-Vx-35" target="IRaBIjNlhVpxpxKp_-Vx-25">
          <mxGeometry relative="1" as="geometry" />
        </mxCell>
        <mxCell id="IRaBIjNlhVpxpxKp_-Vx-33" style="edgeStyle=orthogonalEdgeStyle;rounded=0;orthogonalLoop=1;jettySize=auto;html=1;exitX=1;exitY=0.5;exitDx=0;exitDy=0;entryX=0;entryY=0.5;entryDx=0;entryDy=0;" edge="1" parent="IRaBIjNlhVpxpxKp_-Vx-23" source="IRaBIjNlhVpxpxKp_-Vx-27" target="IRaBIjNlhVpxpxKp_-Vx-34">
          <mxGeometry relative="1" as="geometry" />
        </mxCell>
        <mxCell id="pQ500t3VpKBUtN-9PvEV-2" style="edgeStyle=orthogonalEdgeStyle;rounded=0;orthogonalLoop=1;jettySize=auto;html=1;exitX=0.5;exitY=0;exitDx=0;exitDy=0;entryX=0.145;entryY=0.855;entryDx=0;entryDy=0;entryPerimeter=0;" edge="1" parent="IRaBIjNlhVpxpxKp_-Vx-23" source="hv9LymuxvFTOjkqvzIeN-0" target="IRaBIjNlhVpxpxKp_-Vx-25">
          <mxGeometry relative="1" as="geometry">
            <Array as="points">
              <mxPoint x="136" y="730" />
              <mxPoint x="37" y="730" />
            </Array>
          </mxGeometry>
        </mxCell>
        <mxCell id="IRaBIjNlhVpxpxKp_-Vx-26" value="Delete product&lt;br&gt;type" style="rounded=1;whiteSpace=wrap;html=1;shadow=0;comic=0;labelBackgroundColor=none;strokeWidth=1;fontFamily=Verdana;fontSize=12;align=center;arcSize=50;" vertex="1" parent="IRaBIjNlhVpxpxKp_-Vx-23">
          <mxGeometry x="16.25" y="550" width="70" height="50" as="geometry" />
        </mxCell>
        <mxCell id="hv9LymuxvFTOjkqvzIeN-0" value="Display product type list" style="rounded=1;whiteSpace=wrap;html=1;shadow=0;comic=0;labelBackgroundColor=none;strokeWidth=1;fontFamily=Verdana;fontSize=12;align=center;arcSize=50;" vertex="1" parent="IRaBIjNlhVpxpxKp_-Vx-23">
          <mxGeometry x="81.5" y="750" width="108.5" height="30" as="geometry" />
        </mxCell>
        <mxCell id="IRaBIjNlhVpxpxKp_-Vx-34" value="Display product type" style="rounded=1;whiteSpace=wrap;html=1;shadow=0;comic=0;labelBackgroundColor=none;strokeWidth=1;fontFamily=Verdana;fontSize=12;align=center;arcSize=50;" vertex="1" parent="IRaBIjNlhVpxpxKp_-Vx-23">
          <mxGeometry x="110" y="480" width="87" height="50" as="geometry" />
        </mxCell>
        <mxCell id="IRaBIjNlhVpxpxKp_-Vx-35" value="Display operation aborted" style="rounded=1;whiteSpace=wrap;html=1;shadow=0;comic=0;labelBackgroundColor=none;strokeWidth=1;fontFamily=Verdana;fontSize=12;align=center;arcSize=50;" vertex="1" parent="IRaBIjNlhVpxpxKp_-Vx-23">
          <mxGeometry x="110" y="550" width="87" height="50" as="geometry" />
        </mxCell>
        <mxCell id="IRaBIjNlhVpxpxKp_-Vx-36" value="Display product type" style="rounded=1;whiteSpace=wrap;html=1;shadow=0;comic=0;labelBackgroundColor=none;strokeWidth=1;fontFamily=Verdana;fontSize=12;align=center;arcSize=50;" vertex="1" parent="IRaBIjNlhVpxpxKp_-Vx-23">
          <mxGeometry x="130" y="275" width="87" height="40" as="geometry" />
        </mxCell>
        <mxCell id="IRaBIjNlhVpxpxKp_-Vx-37" value="SQL Database" style="swimlane;html=1;startSize=20;" vertex="1" parent="IRaBIjNlhVpxpxKp_-Vx-2">
          <mxGeometry x="500" y="20" width="250" height="820" as="geometry">
            <mxRectangle x="500" y="20" width="30" height="970" as="alternateBounds" />
          </mxGeometry>
        </mxCell>
        <mxCell id="IRaBIjNlhVpxpxKp_-Vx-38" value="Product type details" style="rounded=0;whiteSpace=wrap;html=1;shadow=0;comic=0;labelBackgroundColor=none;strokeWidth=1;fontFamily=Verdana;fontSize=12;align=center;arcSize=50;" vertex="1" parent="IRaBIjNlhVpxpxKp_-Vx-37">
          <mxGeometry x="90" y="280" width="100" height="30" as="geometry" />
        </mxCell>
        <mxCell id="IRaBIjNlhVpxpxKp_-Vx-39" style="edgeStyle=orthogonalEdgeStyle;rounded=0;orthogonalLoop=1;jettySize=auto;html=1;exitX=1;exitY=0.5;exitDx=0;exitDy=0;entryX=0;entryY=0.5;entryDx=0;entryDy=0;" edge="1" parent="IRaBIjNlhVpxpxKp_-Vx-2" source="IRaBIjNlhVpxpxKp_-Vx-21" target="IRaBIjNlhVpxpxKp_-Vx-29">
          <mxGeometry relative="1" as="geometry" />
        </mxCell>
        <mxCell id="IRaBIjNlhVpxpxKp_-Vx-40" style="edgeStyle=orthogonalEdgeStyle;rounded=0;orthogonalLoop=1;jettySize=auto;html=1;exitX=0.5;exitY=1;exitDx=0;exitDy=0;entryX=0;entryY=0.5;entryDx=0;entryDy=0;" edge="1" parent="IRaBIjNlhVpxpxKp_-Vx-2" source="IRaBIjNlhVpxpxKp_-Vx-18" target="IRaBIjNlhVpxpxKp_-Vx-25">
          <mxGeometry relative="1" as="geometry" />
        </mxCell>
        <mxCell id="IRaBIjNlhVpxpxKp_-Vx-41" value="[Confirm NO]" style="edgeLabel;html=1;align=center;verticalAlign=middle;resizable=0;points=[];" vertex="1" connectable="0" parent="IRaBIjNlhVpxpxKp_-Vx-40">
          <mxGeometry x="-0.6355" y="2" relative="1" as="geometry">
            <mxPoint x="40.5" y="-8" as="offset" />
          </mxGeometry>
        </mxCell>
        <mxCell id="IRaBIjNlhVpxpxKp_-Vx-42" style="edgeStyle=orthogonalEdgeStyle;rounded=0;orthogonalLoop=1;jettySize=auto;html=1;exitX=1;exitY=0.5;exitDx=0;exitDy=0;" edge="1" parent="IRaBIjNlhVpxpxKp_-Vx-2" source="IRaBIjNlhVpxpxKp_-Vx-18" target="IRaBIjNlhVpxpxKp_-Vx-26">
          <mxGeometry relative="1" as="geometry" />
        </mxCell>
        <mxCell id="IRaBIjNlhVpxpxKp_-Vx-43" value="[Confirm YES]" style="edgeLabel;html=1;align=center;verticalAlign=middle;resizable=0;points=[];" vertex="1" connectable="0" parent="IRaBIjNlhVpxpxKp_-Vx-42">
          <mxGeometry x="-0.679" y="1" relative="1" as="geometry">
            <mxPoint x="23.33" y="-14" as="offset" />
          </mxGeometry>
        </mxCell>
        <mxCell id="IRaBIjNlhVpxpxKp_-Vx-44" style="edgeStyle=orthogonalEdgeStyle;rounded=0;orthogonalLoop=1;jettySize=auto;html=1;exitX=1;exitY=0.5;exitDx=0;exitDy=0;entryX=0;entryY=0.5;entryDx=0;entryDy=0;" edge="1" parent="IRaBIjNlhVpxpxKp_-Vx-2" source="IRaBIjNlhVpxpxKp_-Vx-22" target="IRaBIjNlhVpxpxKp_-Vx-27">
          <mxGeometry relative="1" as="geometry" />
        </mxCell>
        <mxCell id="IRaBIjNlhVpxpxKp_-Vx-45" style="edgeStyle=orthogonalEdgeStyle;rounded=0;orthogonalLoop=1;jettySize=auto;html=1;entryX=0.5;entryY=0;entryDx=0;entryDy=0;dashed=1;exitX=0.5;exitY=0;exitDx=0;exitDy=0;" edge="1" parent="IRaBIjNlhVpxpxKp_-Vx-2" source="IRaBIjNlhVpxpxKp_-Vx-38" target="IRaBIjNlhVpxpxKp_-Vx-29">
          <mxGeometry relative="1" as="geometry" />
        </mxCell>
        <mxCell id="IRaBIjNlhVpxpxKp_-Vx-46" style="edgeStyle=orthogonalEdgeStyle;rounded=0;orthogonalLoop=1;jettySize=auto;html=1;entryX=0.5;entryY=0;entryDx=0;entryDy=0;dashed=1;" edge="1" parent="IRaBIjNlhVpxpxKp_-Vx-2" target="IRaBIjNlhVpxpxKp_-Vx-27">
          <mxGeometry relative="1" as="geometry">
            <mxPoint x="620" y="330" as="sourcePoint" />
            <Array as="points">
              <mxPoint x="620" y="480" />
              <mxPoint x="301" y="480" />
            </Array>
          </mxGeometry>
        </mxCell>
        <mxCell id="IRaBIjNlhVpxpxKp_-Vx-47" style="edgeStyle=orthogonalEdgeStyle;rounded=0;orthogonalLoop=1;jettySize=auto;html=1;entryX=0.5;entryY=0;entryDx=0;entryDy=0;dashed=1;" edge="1" parent="IRaBIjNlhVpxpxKp_-Vx-2" target="IRaBIjNlhVpxpxKp_-Vx-26">
          <mxGeometry relative="1" as="geometry">
            <Array as="points">
              <mxPoint x="640" y="330" />
              <mxPoint x="640" y="560" />
              <mxPoint x="301" y="560" />
            </Array>
            <mxPoint x="640" y="330" as="sourcePoint" />
          </mxGeometry>
        </mxCell>
        <mxCell id="pQ500t3VpKBUtN-9PvEV-0" style="edgeStyle=orthogonalEdgeStyle;rounded=0;orthogonalLoop=1;jettySize=auto;html=1;entryX=0;entryY=0.5;entryDx=0;entryDy=0;exitX=0;exitY=0.5;exitDx=0;exitDy=0;" edge="1" parent="IRaBIjNlhVpxpxKp_-Vx-2" source="IRaBIjNlhVpxpxKp_-Vx-6" target="hv9LymuxvFTOjkqvzIeN-0">
          <mxGeometry relative="1" as="geometry">
            <Array as="points">
              <mxPoint x="20" y="275" />
              <mxPoint x="20" y="785" />
            </Array>
          </mxGeometry>
        </mxCell>
        <mxCell id="pQ500t3VpKBUtN-9PvEV-1" value="[List all product type]" style="edgeLabel;html=1;align=center;verticalAlign=middle;resizable=0;points=[];rotation=-90;" vertex="1" connectable="0" parent="pQ500t3VpKBUtN-9PvEV-0">
          <mxGeometry x="-0.5978" relative="1" as="geometry">
            <mxPoint x="-10" y="-12" as="offset" />
          </mxGeometry>
        </mxCell>
        <mxCell id="pQ500t3VpKBUtN-9PvEV-3" style="edgeStyle=orthogonalEdgeStyle;rounded=0;orthogonalLoop=1;jettySize=auto;html=1;exitX=0.75;exitY=1;exitDx=0;exitDy=0;entryX=1;entryY=0.5;entryDx=0;entryDy=0;dashed=1;" edge="1" parent="IRaBIjNlhVpxpxKp_-Vx-2" source="IRaBIjNlhVpxpxKp_-Vx-38" target="hv9LymuxvFTOjkqvzIeN-0">
          <mxGeometry relative="1" as="geometry">
            <Array as="points">
              <mxPoint x="660" y="330" />
              <mxPoint x="660" y="785" />
            </Array>
          </mxGeometry>
        </mxCell>
      </root>
    </mxGraphModel>
  </diagram>
  <diagram id="bsguHHWBd5-HQgrQCwr7" name="ManageProduct_Class">
    <mxGraphModel dx="1422" dy="745" grid="1" gridSize="10" guides="1" tooltips="1" connect="1" arrows="1" fold="1" page="1" pageScale="1" pageWidth="1100" pageHeight="850" math="0" shadow="0">
      <root>
        <mxCell id="xpugUq_HLJRodG2twl_n-0" />
        <mxCell id="xpugUq_HLJRodG2twl_n-1" parent="xpugUq_HLJRodG2twl_n-0" />
        <mxCell id="xpugUq_HLJRodG2twl_n-2" style="edgeStyle=orthogonalEdgeStyle;rounded=0;orthogonalLoop=1;jettySize=auto;html=1;exitX=0;exitY=0.5;exitDx=0;exitDy=0;entryX=1;entryY=0.5;entryDx=0;entryDy=0;endArrow=none;endFill=0;" edge="1" parent="xpugUq_HLJRodG2twl_n-1" source="xpugUq_HLJRodG2twl_n-3" target="xpugUq_HLJRodG2twl_n-7">
          <mxGeometry relative="1" as="geometry">
            <mxPoint x="488" y="476.25" as="targetPoint" />
            <Array as="points">
              <mxPoint x="620" y="480" />
              <mxPoint x="580" y="480" />
              <mxPoint x="580" y="386" />
            </Array>
          </mxGeometry>
        </mxCell>
        <mxCell id="xpugUq_HLJRodG2twl_n-3" value="&lt;p style=&quot;margin: 0px ; margin-top: 4px ; text-align: center&quot;&gt;&lt;i&gt;&amp;lt;&amp;lt;Entity&amp;gt;&amp;gt;&lt;/i&gt;&lt;br&gt;&lt;b&gt;Product&lt;/b&gt;&lt;/p&gt;&lt;hr size=&quot;1&quot;&gt;&lt;p style=&quot;margin: 0px ; margin-left: 4px&quot;&gt;- ProductID: string&lt;/p&gt;&lt;p style=&quot;margin: 0px ; margin-left: 4px&quot;&gt;- ProductName: string&lt;/p&gt;&lt;p style=&quot;margin: 0px ; margin-left: 4px&quot;&gt;- Note: string&lt;/p&gt;&lt;hr size=&quot;1&quot;&gt;&lt;p style=&quot;margin: 0px ; margin-left: 4px&quot;&gt;+ get_product_list()&lt;/p&gt;&lt;p style=&quot;margin: 0px ; margin-left: 4px&quot;&gt;+ add_product()&lt;/p&gt;&lt;p style=&quot;margin: 0px ; margin-left: 4px&quot;&gt;+ update_product()&lt;/p&gt;&lt;p style=&quot;margin: 0px ; margin-left: 4px&quot;&gt;+ delete_product()&lt;/p&gt;" style="verticalAlign=top;align=left;overflow=fill;fontSize=12;fontFamily=Helvetica;html=1;" vertex="1" parent="xpugUq_HLJRodG2twl_n-1">
          <mxGeometry x="620" y="425" width="190" height="161.25" as="geometry" />
        </mxCell>
        <mxCell id="xpugUq_HLJRodG2twl_n-5" value="1..*" style="text;html=1;align=center;verticalAlign=middle;resizable=0;points=[];autosize=1;" vertex="1" parent="xpugUq_HLJRodG2twl_n-1">
          <mxGeometry x="590" y="520" width="30" height="20" as="geometry" />
        </mxCell>
        <mxCell id="xpugUq_HLJRodG2twl_n-6" value="1" style="text;html=1;align=center;verticalAlign=middle;resizable=0;points=[];autosize=1;" vertex="1" parent="xpugUq_HLJRodG2twl_n-1">
          <mxGeometry x="540" y="360" width="20" height="20" as="geometry" />
        </mxCell>
        <mxCell id="xpugUq_HLJRodG2twl_n-7" value="&lt;p style=&quot;margin: 0px ; margin-top: 4px ; text-align: center&quot;&gt;&lt;i&gt;&amp;lt;&amp;lt;Controller&amp;gt;&amp;gt;&lt;/i&gt;&lt;br&gt;&lt;b&gt;ManageProduct&lt;/b&gt;&lt;/p&gt;&lt;hr size=&quot;1&quot;&gt;&lt;p style=&quot;margin: 0px ; margin-left: 4px&quot;&gt;&lt;br&gt;&lt;/p&gt;&lt;hr size=&quot;1&quot;&gt;&lt;p style=&quot;margin: 0px ; margin-left: 4px&quot;&gt;+ request_add_product()&lt;/p&gt;&lt;p style=&quot;margin: 0px ; margin-left: 4px&quot;&gt;+ request_delete_product()&lt;/p&gt;&lt;p style=&quot;margin: 0px ; margin-left: 4px&quot;&gt;+ request_update_product()&lt;/p&gt;&lt;p style=&quot;margin: 0px ; margin-left: 4px&quot;&gt;+ get_product_list()&lt;/p&gt;&lt;p style=&quot;margin: 0px ; margin-left: 4px&quot;&gt;&lt;br&gt;&lt;/p&gt;&lt;p style=&quot;margin: 0px 0px 0px 4px&quot;&gt;+ request_add_product_type()&lt;/p&gt;&lt;p style=&quot;margin: 0px 0px 0px 4px&quot;&gt;+ request_delete_product_type()&lt;/p&gt;&lt;p style=&quot;margin: 0px 0px 0px 4px&quot;&gt;+ request_update_product_type()&lt;/p&gt;&lt;p style=&quot;margin: 0px 0px 0px 4px&quot;&gt;+ get_product_type_list()&lt;/p&gt;" style="verticalAlign=top;align=left;overflow=fill;fontSize=12;fontFamily=Helvetica;html=1;" vertex="1" parent="xpugUq_HLJRodG2twl_n-1">
          <mxGeometry x="340" y="282.5" width="200" height="207.5" as="geometry" />
        </mxCell>
        <mxCell id="RWEHuuZN01T8yPMS3ipp-5" style="edgeStyle=orthogonalEdgeStyle;rounded=0;orthogonalLoop=1;jettySize=auto;html=1;entryX=0;entryY=0.5;entryDx=0;entryDy=0;endArrow=none;endFill=0;" edge="1" parent="xpugUq_HLJRodG2twl_n-1" source="RWEHuuZN01T8yPMS3ipp-1" target="xpugUq_HLJRodG2twl_n-7">
          <mxGeometry relative="1" as="geometry">
            <mxPoint x="280" y="480" as="sourcePoint" />
            <Array as="points">
              <mxPoint x="300" y="480" />
              <mxPoint x="300" y="386" />
            </Array>
          </mxGeometry>
        </mxCell>
        <mxCell id="RWEHuuZN01T8yPMS3ipp-6" style="edgeStyle=orthogonalEdgeStyle;rounded=0;orthogonalLoop=1;jettySize=auto;html=1;exitX=1;exitY=0.75;exitDx=0;exitDy=0;entryX=0;entryY=0.75;entryDx=0;entryDy=0;endArrow=none;endFill=0;" edge="1" parent="xpugUq_HLJRodG2twl_n-1" source="RWEHuuZN01T8yPMS3ipp-1" target="xpugUq_HLJRodG2twl_n-3">
          <mxGeometry relative="1" as="geometry" />
        </mxCell>
        <mxCell id="RWEHuuZN01T8yPMS3ipp-1" value="&lt;p style=&quot;margin: 0px ; margin-top: 4px ; text-align: center&quot;&gt;&lt;i&gt;&amp;lt;&amp;lt;Entity&amp;gt;&amp;gt;&lt;/i&gt;&lt;br&gt;&lt;b&gt;ProductType&lt;/b&gt;&lt;/p&gt;&lt;hr size=&quot;1&quot;&gt;&lt;p style=&quot;margin: 0px ; margin-left: 4px&quot;&gt;- ProductTypeID: string&lt;/p&gt;&lt;p style=&quot;margin: 0px ; margin-left: 4px&quot;&gt;- ProductType: string&lt;/p&gt;&lt;p style=&quot;margin: 0px ; margin-left: 4px&quot;&gt;- Note: string&lt;/p&gt;&lt;hr size=&quot;1&quot;&gt;&lt;p style=&quot;margin: 0px ; margin-left: 4px&quot;&gt;+ get_product_type_list()&lt;/p&gt;&lt;p style=&quot;margin: 0px ; margin-left: 4px&quot;&gt;+ add_product_type()&lt;/p&gt;&lt;p style=&quot;margin: 0px ; margin-left: 4px&quot;&gt;+ update_product_type()&lt;/p&gt;&lt;p style=&quot;margin: 0px ; margin-left: 4px&quot;&gt;+ delete_product_type()&lt;/p&gt;" style="verticalAlign=top;align=left;overflow=fill;fontSize=12;fontFamily=Helvetica;html=1;" vertex="1" parent="xpugUq_HLJRodG2twl_n-1">
          <mxGeometry x="70" y="425" width="190" height="161.25" as="geometry" />
        </mxCell>
        <mxCell id="RWEHuuZN01T8yPMS3ipp-7" value="1" style="text;html=1;align=center;verticalAlign=middle;resizable=0;points=[];autosize=1;" vertex="1" parent="xpugUq_HLJRodG2twl_n-1">
          <mxGeometry x="280" y="520" width="20" height="20" as="geometry" />
        </mxCell>
        <mxCell id="RWEHuuZN01T8yPMS3ipp-8" value="1..*" style="text;html=1;align=center;verticalAlign=middle;resizable=0;points=[];autosize=1;" vertex="1" parent="xpugUq_HLJRodG2twl_n-1">
          <mxGeometry x="590" y="460" width="30" height="20" as="geometry" />
        </mxCell>
        <mxCell id="RWEHuuZN01T8yPMS3ipp-9" value="1..*" style="text;html=1;align=center;verticalAlign=middle;resizable=0;points=[];autosize=1;" vertex="1" parent="xpugUq_HLJRodG2twl_n-1">
          <mxGeometry x="260" y="460" width="30" height="20" as="geometry" />
        </mxCell>
        <mxCell id="RWEHuuZN01T8yPMS3ipp-10" value="1" style="text;html=1;align=center;verticalAlign=middle;resizable=0;points=[];autosize=1;" vertex="1" parent="xpugUq_HLJRodG2twl_n-1">
          <mxGeometry x="320" y="360" width="20" height="20" as="geometry" />
        </mxCell>
      </root>
    </mxGraphModel>
  </diagram>
</mxfile>
